999
dxfrw 0.6.3
  0
SECTION
  2
HEADER
  9
$ACADVER
  1
AC1021
  9
$DWGCODEPAGE
  3
ANSI_1252
  9
$INSBASE
 10
0
 20
0
 30
0
  9
$EXTMIN
 10
0.825
 20
-116.175
 30
0
  9
$EXTMAX
 10
620.825
 20
-1.175
 30
0
  9
$LIMMIN
 10
0
 20
0
  9
$LIMMAX
 10
420
 20
297
  9
$ORTHOMODE
 70
    0
  9
$REGENMODE
 70
    1
  9
$FILLMODE
 70
    1
  9
$QTEXTMODE
 70
    0
  9
$MIRRTEXT
 70
    0
  9
$LTSCALE
 40
1
  9
$ATTMODE
 70
    0
  9
$TEXTSIZE
 40
2.5
  9
$TRACEWID
 40
15.68
  9
$TEXTSTYLE
  7
STANDARD
  9
$CLAYER
  8
0
  9
$CELTYPE
  6
BYLAYER
  9
$CECOLOR
 62
  256
  9
$CELTSCALE
 40
1
  9
$DISPSILH
 70
    0
  9
$DIMSCALE
 40
2.5
  9
$DIMASZ
 40
2.5
  9
$DIMEXO
 40
0.625
  9
$DIMDLI
 40
3.75
  9
$DIMRND
 40
0
  9
$DIMDLE
 40
0
  9
$DIMEXE
 40
1.25
  9
$DIMTP
 40
0
  9
$DIMTM
 40
0
  9
$DIMTXT
 40
2.5
  9
$DIMCEN
 40
2.5
  9
$DIMTSZ
 40
0
  9
$DIMTOL
 70
    0
  9
$DIMLIM
 70
    0
  9
$DIMTIH
 70
    0
  9
$DIMTOH
 70
    0
  9
$DIMSE1
 70
    0
  9
$DIMSE2
 70
    0
  9
$DIMTAD
 70
    1
  9
$DIMZIN
 70
    8
  9
$DIMBLK
  1

  9
$DIMASO
 70
    1
  9
$DIMSHO
 70
    1
  9
$DIMPOST
  1

  9
$DIMAPOST
  1

  9
$DIMALT
 70
    0
  9
$DIMALTD
 70
    3
  9
$DIMALTF
 40
0.03937
  9
$DIMLFAC
 40
1
  9
$DIMTOFL
 70
    1
  9
$DIMTVP
 40
0
  9
$DIMTIX
 70
    0
  9
$DIMSOXD
 70
    0
  9
$DIMSAH
 70
    0
  9
$DIMBLK1
  1

  9
$DIMBLK2
  1

  9
$DIMSTYLE
  2
Standard
  9
$DIMCLRD
 70
    0
  9
$DIMCLRE
 70
    0
  9
$DIMCLRT
 70
    0
  9
$DIMTFAC
 40
1
  9
$DIMGAP
 40
0.625
  9
$DIMJUST
 70
    0
  9
$DIMSD1
 70
    0
  9
$DIMSD2
 70
    0
  9
$DIMTOLJ
 70
    0
  9
$DIMTZIN
 70
    8
  9
$DIMALTZ
 70
    0
  9
$DIMALTTZ
 70
    0
  9
$DIMUPT
 70
    0
  9
$DIMDEC
 70
    2
  9
$DIMTDEC
 70
    2
  9
$DIMALTU
 70
    2
  9
$DIMALTTD
 70
    3
  9
$DIMTXSTY
  7
STANDARD
  9
$DIMAUNIT
 70
    0
  9
$DIMADEC
 70
    0
  9
$DIMALTRND
 40
0
  9
$DIMAZIN
 70
    0
  9
$DIMDSEP
 70
   44
  9
$DIMATFIT
 70
    3
  9
$DIMFRAC
 70
    0
  9
$DIMLDRBLK
  1
STANDARD
  9
$DIMLUNIT
 70
    2
  9
$DIMLWD
 70
   -2
  9
$DIMLWE
 70
   -2
  9
$DIMTMOVE
 70
    0
  9
$DIMFXL
 40
1
  9
$DIMFXLON
 70
    0
  9
$DIMJOGANG
 40
0.7854
  9
$DIMTFILL
 70
    0
  9
$DIMTFILLCLR
 70
    0
  9
$DIMARCSYM
 70
    0
  9
$DIMLTYPE
  6

  9
$DIMLTEX1
  6

  9
$DIMLTEX2
  6

  9
$LUNITS
 70
    2
  9
$LUPREC
 70
    4
  9
$SKETCHINC
 40
1
  9
$FILLETRAD
 40
0
  9
$AUNITS
 70
    0
  9
$AUPREC
 70
    2
  9
$MENU
  1
.
  9
$ELEVATION
 40
0
  9
$PELEVATION
 40
0
  9
$THICKNESS
 40
0
  9
$LIMCHECK
 70
    0
  9
$CHAMFERA
 40
0
  9
$CHAMFERB
 40
0
  9
$CHAMFERC
 40
0
  9
$CHAMFERD
 40
0
  9
$SKPOLY
 70
    0
  9
$USRTIMER
 70
    1
  9
$ANGBASE
 50
0
  9
$ANGDIR
 70
    0
  9
$PDMODE
 70
   34
  9
$PDSIZE
 40
0
  9
$PLINEWID
 40
0
  9
$SPLFRAME
 70
    0
  9
$SPLINETYPE
 70
    2
  9
$SPLINESEGS
 70
    8
  9
$HANDSEED
  5
20000
  9
$SURFTAB1
 70
    6
  9
$SURFTAB2
 70
    6
  9
$SURFTYPE
 70
    6
  9
$SURFU
 70
    6
  9
$SURFV
 70
    6
  9
$UCSBASE
  2

  9
$UCSNAME
  2

  9
$UCSORG
 10
0
 20
0
 30
0
  9
$UCSXDIR
 10
1
 20
0
 30
0
  9
$UCSYDIR
 10
0
 20
1
 30
0
  9
$UCSORTHOREF
  2

  9
$UCSORTHOVIEW
 70
    0
  9
$UCSORGTOP
 10
0
 20
0
 30
0
  9
$UCSORGBOTTOM
 10
0
 20
0
 30
0
  9
$UCSORGLEFT
 10
0
 20
0
 30
0
  9
$UCSORGRIGHT
 10
0
 20
0
 30
0
  9
$UCSORGFRONT
 10
0
 20
0
 30
0
  9
$UCSORGBACK
 10
0
 20
0
 30
0
  9
$PUCSBASE
  2

  9
$PUCSNAME
  2

  9
$PUCSORG
 10
0
 20
0
 30
0
  9
$PUCSXDIR
 10
1
 20
0
 30
0
  9
$PUCSYDIR
 10
0
 20
1
 30
0
  9
$PUCSORTHOREF
  2

  9
$PUCSORTHOVIEW
 70
    0
  9
$PUCSORGTOP
 10
0
 20
0
 30
0
  9
$PUCSORGBOTTOM
 10
0
 20
0
 30
0
  9
$PUCSORGLEFT
 10
0
 20
0
 30
0
  9
$PUCSORGRIGHT
 10
0
 20
0
 30
0
  9
$PUCSORGFRONT
 10
0
 20
0
 30
0
  9
$PUCSORGBACK
 10
0
 20
0
 30
0
  9
$USERI1
 70
    0
  9
$USERI2
 70
    0
  9
$USERI3
 70
    0
  9
$USERI4
 70
    0
  9
$USERI5
 70
    0
  9
$USERR1
 40
0
  9
$USERR2
 40
0
  9
$USERR3
 40
0
  9
$USERR4
 40
0
  9
$USERR5
 40
0
  9
$WORLDVIEW
 70
    1
  9
$SHADEDGE
 70
    3
  9
$SHADEDIF
 70
   70
  9
$TILEMODE
 70
    1
  9
$MAXACTVP
 70
   64
  9
$PINSBASE
 10
0
 20
0
 30
0
  9
$PLIMCHECK
 70
    0
  9
$PEXTMIN
 10
0
 20
0
 30
0
  9
$PEXTMAX
 10
0
 20
0
 30
0
  9
$GRIDMODE
 70
    1
  9
$SNAPSTYLE
 70
    0
  9
$PLIMMIN
 10
0
 20
0
  9
$PLIMMAX
 10
210
 20
297
  9
$UNITMODE
 70
    0
  9
$VISRETAIN
 70
    1
  9
$PLINEGEN
 70
    0
  9
$PSLTSCALE
 70
    1
  9
$TREEDEPTH
 70
 3020
  9
$CMLSTYLE
  2
Standard
  9
$CMLJUST
 70
    0
  9
$CMLSCALE
 40
20
  9
$PROXYGRAPHICS
 70
    1
  9
$MEASUREMENT
 70
    1
  9
$CELWEIGHT
370
   -1
  9
$ENDCAPS
280
    0
  9
$JOINSTYLE
280
    0
  9
$LWDISPLAY
290
    0
  9
$INSUNITS
 70
    4
  9
$HYPERLINKBASE
  1

  9
$STYLESHEET
  1

  9
$XEDIT
290
    1
  9
$CEPSNTYPE
380
    0
  9
$PSTYLEMODE
290
    1
  9
$EXTNAMES
290
    1
  9
$PSVPSCALE
 40
1
  9
$OLESTARTUP
290
    0
  9
$SORTENTS
280
  127
  9
$INDEXCTL
280
    0
  9
$HIDETEXT
280
    1
  9
$XCLIPFRAME
290
    0
  9
$HALOGAP
280
    0
  9
$OBSCOLOR
 70
  257
  9
$OBSLTYPE
280
    0
  9
$INTERSECTIONDISPLAY
280
    0
  9
$INTERSECTIONCOLOR
 70
  257
  9
$DIMASSOC
280
    1
  9
$PROJECTNAME
  1

  9
$CAMERADISPLAY
290
    0
  9
$LENSLENGTH
 40
50
  9
$CAMERAHEIGHT
 40
0
  9
$STEPSPERSEC
 40
2
  9
$STEPSIZE
 40
50
  9
$3DDWFPREC
 40
2
  9
$PSOLWIDTH
 40
5
  9
$PSOLHEIGHT
 40
80
  9
$LOFTANG1
 40
1.570796326794897
  9
$LOFTANG2
 40
1.570796326794897
  9
$LOFTMAG1
 40
0
  9
$LOFTMAG2
 40
0
  9
$LOFTPARAM
 70
    7
  9
$LOFTNORMALS
280
    1
  9
$LATITUDE
 40
1
  9
$LONGITUDE
 40
1
  9
$NORTHDIRECTION
 40
0
  9
$TIMEZONE
 70
-8000
  9
$LIGHTGLYPHDISPLAY
280
    1
  9
$TILEMODELIGHTSYNCH
280
    1
  9
$SOLIDHIST
280
    1
  9
$SHOWHIST
280
    1
  9
$DWFFRAME
280
    2
  9
$DGNFRAME
280
    0
  9
$REALWORLDSCALE
290
    1
  9
$INTERFERECOLOR
 62
    1
  9
$CSHADOW
280
    0
  9
$SHADOWPLANELOCATION
 40
0
  0
ENDSEC
  0
SECTION
  2
CLASSES
  0
ENDSEC
  0
SECTION
  2
TABLES
  0
TABLE
  2
VPORT
  5
8
330
0
100
AcDbSymbolTable
 70
    1
  0
VPORT
  5
31
330
2
100
AcDbSymbolTableRecord
100
AcDbViewportTableRecord
  2
*ACTIVE
 70
    0
 10
0
 20
0
 11
1
 21
1
 12
448.7194363869194
 22
100.4639469195257
 13
0
 23
0
 14
10
 24
10
 15
10
 25
10
 16
0
 26
0
 36
1
 17
0
 27
0
 37
0
 40
496.7546763134565
 41
1.997641509433962
 42
50
 43
0
 44
0
 50
0
 51
0
 71
    0
 72
  100
 73
    1
 74
    3
 75
    0
 76
    1
 77
    0
 78
    0
281
    0
 65
    1
110
0
120
0
130
0
111
1
121
0
131
0
112
0
122
1
132
0
 79
    0
146
0
348
10020
 60
    7
 61
    5
292
1
282
    1
141
0
142
0
 63
  250
421
3358443
  0
ENDTAB
  0
TABLE
  2
LTYPE
  5
5
330
0
100
AcDbSymbolTable
 70
    4
  0
LTYPE
  5
14
330
5
100
AcDbSymbolTableRecord
100
AcDbLinetypeTableRecord
  2
ByBlock
 70
    0
  3

 72
   65
 73
    0
 40
0
  0
LTYPE
  5
15
330
5
100
AcDbSymbolTableRecord
100
AcDbLinetypeTableRecord
  2
ByLayer
 70
    0
  3

 72
   65
 73
    0
 40
0
  0
LTYPE
  5
16
330
5
100
AcDbSymbolTableRecord
100
AcDbLinetypeTableRecord
  2
Continuous
 70
    0
  3
Solid line
 72
   65
 73
    0
 40
0
  0
LTYPE
  5
32
330
5
100
AcDbSymbolTableRecord
100
AcDbLinetypeTableRecord
  2
DOT
 70
    0
  3
Dot . . . . . . . . . . . . . . . . . . . . . .
 72
   65
 73
    2
 40
6.35
 49
0
 74
    0
 49
-6.35
 74
    0
  0
LTYPE
  5
33
330
5
100
AcDbSymbolTableRecord
100
AcDbLinetypeTableRecord
  2
DOTTINY
 70
    0
  3
Dot (.15x) .....................................
 72
   65
 73
    2
 40
0.9525
 49
0
 74
    0
 49
-0.9525
 74
    0
  0
LTYPE
  5
34
330
5
100
AcDbSymbolTableRecord
100
AcDbLinetypeTableRecord
  2
DOT2
 70
    0
  3
Dot (.5x) .....................................
 72
   65
 73
    2
 40
3.175
 49
0
 74
    0
 49
-3.175
 74
    0
  0
LTYPE
  5
35
330
5
100
AcDbSymbolTableRecord
100
AcDbLinetypeTableRecord
  2
DOTX2
 70
    0
  3
Dot (2x) .  .  .  .  .  .  .  .  .  .  .  .  .
 72
   65
 73
    2
 40
12.7
 49
0
 74
    0
 49
-12.7
 74
    0
  0
LTYPE
  5
36
330
5
100
AcDbSymbolTableRecord
100
AcDbLinetypeTableRecord
  2
DASHED
 70
    0
  3
Dashed _ _ _ _ _ _ _ _ _ _ _ _ _ _ _ _ _
 72
   65
 73
    2
 40
19.05
 49
12.7
 74
    0
 49
-6.35
 74
    0
  0
LTYPE
  5
37
330
5
100
AcDbSymbolTableRecord
100
AcDbLinetypeTableRecord
  2
DASHEDTINY
 70
    0
  3
Dashed (.15x) _ _ _ _ _ _ _ _ _ _ _ _ _ _ _ _ _
 72
   65
 73
    2
 40
2.8575
 49
1.905
 74
    0
 49
-0.9525
 74
    0
  0
LTYPE
  5
38
330
5
100
AcDbSymbolTableRecord
100
AcDbLinetypeTableRecord
  2
DASHED2
 70
    0
  3
Dashed (.5x) _ _ _ _ _ _ _ _ _ _ _ _ _ _ _ _ _
 72
   65
 73
    2
 40
9.524999999999999
 49
6.35
 74
    0
 49
-3.175
 74
    0
  0
LTYPE
  5
39
330
5
100
AcDbSymbolTableRecord
100
AcDbLinetypeTableRecord
  2
DASHEDX2
 70
    0
  3
Dashed (2x) ____  ____  ____  ____  ____  ___
 72
   65
 73
    2
 40
38.09999999999999
 49
25.4
 74
    0
 49
-12.7
 74
    0
  0
LTYPE
  5
3A
330
5
100
AcDbSymbolTableRecord
100
AcDbLinetypeTableRecord
  2
DASHDOT
 70
    0
  3
Dash dot __ . __ . __ . __ . __ . __ . __ . __
 72
   65
 73
    4
 40
25.4
 49
12.7
 74
    0
 49
-6.35
 74
    0
 49
0
 74
    0
 49
-6.35
 74
    0
  0
LTYPE
  5
3B
330
5
100
AcDbSymbolTableRecord
100
AcDbLinetypeTableRecord
  2
DASHDOTTINY
 70
    0
  3
Dash dot (.15x) _._._._._._._._._._._._._._._.
 72
   65
 73
    4
 40
3.81
 49
1.905
 74
    0
 49
-0.9525
 74
    0
 49
0
 74
    0
 49
-0.9525
 74
    0
  0
LTYPE
  5
3C
330
5
100
AcDbSymbolTableRecord
100
AcDbLinetypeTableRecord
  2
DASHDOT2
 70
    0
  3
Dash dot (.5x) _._._._._._._._._._._._._._._.
 72
   65
 73
    4
 40
12.7
 49
6.35
 74
    0
 49
-3.175
 74
    0
 49
0
 74
    0
 49
-3.175
 74
    0
  0
LTYPE
  5
3D
330
5
100
AcDbSymbolTableRecord
100
AcDbLinetypeTableRecord
  2
DASHDOTX2
 70
    0
  3
Dash dot (2x) ____  .  ____  .  ____  .  ___
 72
   65
 73
    4
 40
50.8
 49
25.4
 74
    0
 49
-12.7
 74
    0
 49
0
 74
    0
 49
-12.7
 74
    0
  0
LTYPE
  5
3E
330
5
100
AcDbSymbolTableRecord
100
AcDbLinetypeTableRecord
  2
DIVIDE
 70
    0
  3
Divide ____ . . ____ . . ____ . . ____ . . ____
 72
   65
 73
    6
 40
31.75
 49
12.7
 74
    0
 49
-6.35
 74
    0
 49
0
 74
    0
 49
-6.35
 74
    0
 49
0
 74
    0
 49
-6.35
 74
    0
  0
LTYPE
  5
3F
330
5
100
AcDbSymbolTableRecord
100
AcDbLinetypeTableRecord
  2
DIVIDETINY
 70
    0
  3
Divide (.15x) __..__..__..__..__..__..__..__.._
 72
   65
 73
    6
 40
4.7625
 49
1.905
 74
    0
 49
-0.9525
 74
    0
 49
0
 74
    0
 49
-0.9525
 74
    0
 49
0
 74
    0
 49
-0.9525
 74
    0
  0
LTYPE
  5
40
330
5
100
AcDbSymbolTableRecord
100
AcDbLinetypeTableRecord
  2
DIVIDE2
 70
    0
  3
Divide (.5x) __..__..__..__..__..__..__..__.._
 72
   65
 73
    6
 40
15.875
 49
6.35
 74
    0
 49
-3.175
 74
    0
 49
0
 74
    0
 49
-3.175
 74
    0
 49
0
 74
    0
 49
-3.175
 74
    0
  0
LTYPE
  5
41
330
5
100
AcDbSymbolTableRecord
100
AcDbLinetypeTableRecord
  2
DIVIDEX2
 70
    0
  3
Divide (2x) ________  .  .  ________  .  .  _
 72
   65
 73
    6
 40
63.5
 49
25.4
 74
    0
 49
-12.7
 74
    0
 49
0
 74
    0
 49
-12.7
 74
    0
 49
0
 74
    0
 49
-12.7
 74
    0
  0
LTYPE
  5
42
330
5
100
AcDbSymbolTableRecord
100
AcDbLinetypeTableRecord
  2
BORDER
 70
    0
  3
Border __ __ . __ __ . __ __ . __ __ . __ __ .
 72
   65
 73
    6
 40
44.45
 49
12.7
 74
    0
 49
-6.35
 74
    0
 49
12.7
 74
    0
 49
-6.35
 74
    0
 49
0
 74
    0
 49
-6.35
 74
    0
  0
LTYPE
  5
43
330
5
100
AcDbSymbolTableRecord
100
AcDbLinetypeTableRecord
  2
BORDERTINY
 70
    0
  3
Border (.15x) __.__.__.__.__.__.__.__.__.__.__.
 72
   65
 73
    6
 40
6.6675
 49
1.905
 74
    0
 49
-0.9525
 74
    0
 49
1.905
 74
    0
 49
-0.9525
 74
    0
 49
0
 74
    0
 49
-0.9525
 74
    0
  0
LTYPE
  5
44
330
5
100
AcDbSymbolTableRecord
100
AcDbLinetypeTableRecord
  2
BORDER2
 70
    0
  3
Border (.5x) __.__.__.__.__.__.__.__.__.__.__.
 72
   65
 73
    6
 40
22.225
 49
6.35
 74
    0
 49
-3.175
 74
    0
 49
6.35
 74
    0
 49
-3.175
 74
    0
 49
0
 74
    0
 49
-3.175
 74
    0
  0
LTYPE
  5
45
330
5
100
AcDbSymbolTableRecord
100
AcDbLinetypeTableRecord
  2
BORDERX2
 70
    0
  3
Border (2x) ____  ____  .  ____  ____  .  ___
 72
   65
 73
    6
 40
88.89999999999999
 49
25.4
 74
    0
 49
-12.7
 74
    0
 49
25.4
 74
    0
 49
-12.7
 74
    0
 49
0
 74
    0
 49
-12.7
 74
    0
  0
LTYPE
  5
46
330
5
100
AcDbSymbolTableRecord
100
AcDbLinetypeTableRecord
  2
CENTER
 70
    0
  3
Center ____ _ ____ _ ____ _ ____ _ ____ _ ____
 72
   65
 73
    4
 40
50.8
 49
31.75
 74
    0
 49
-6.35
 74
    0
 49
6.35
 74
    0
 49
-6.35
 74
    0
  0
LTYPE
  5
47
330
5
100
AcDbSymbolTableRecord
100
AcDbLinetypeTableRecord
  2
CENTERTINY
 70
    0
  3
Center (.15x) ___ _ ___ _ ___ _ ___ _ ___ _ ___
 72
   65
 73
    4
 40
7.62
 49
4.7625
 74
    0
 49
-0.9525
 74
    0
 49
0.9525
 74
    0
 49
-0.9525
 74
    0
  0
LTYPE
  5
48
330
5
100
AcDbSymbolTableRecord
100
AcDbLinetypeTableRecord
  2
CENTER2
 70
    0
  3
Center (.5x) ___ _ ___ _ ___ _ ___ _ ___ _ ___
 72
   65
 73
    4
 40
28.575
 49
19.05
 74
    0
 49
-3.175
 74
    0
 49
3.175
 74
    0
 49
-3.175
 74
    0
  0
LTYPE
  5
49
330
5
100
AcDbSymbolTableRecord
100
AcDbLinetypeTableRecord
  2
CENTERX2
 70
    0
  3
Center (2x) ________  __  ________  __  _____
 72
   65
 73
    4
 40
101.6
 49
63.5
 74
    0
 49
-12.7
 74
    0
 49
12.7
 74
    0
 49
-12.7
 74
    0
  0
ENDTAB
  0
TABLE
  2
LAYER
  5
2
330
0
100
AcDbSymbolTable
 70
    1
  0
LAYER
  5
10
330
2
100
AcDbSymbolTableRecord
100
AcDbLayerTableRecord
  2
0
 70
    0
 62
    7
  6
CONTINUOUS
370
    0
390
F
  0
LAYER
  5
4A
330
2
100
AcDbSymbolTableRecord
100
AcDbLayerTableRecord
  2
1
 70
    0
 62
    7
  6
CONTINUOUS
370
   -3
390
F
  0
ENDTAB
  0
TABLE
  2
STYLE
  5
3
330
0
100
AcDbSymbolTable
 70
    3
  0
STYLE
  5
4B
330
2
100
AcDbSymbolTableRecord
100
AcDbTextStyleTableRecord
  2
standard
 70
    0
 40
0
 41
1
 50
0
 71
    0
 42
1
  3
standard
  4

  0
ENDTAB
  0
TABLE
  2
VIEW
  5
6
330
0
100
AcDbSymbolTable
 70
    0
  0
ENDTAB
  0
TABLE
  2
UCS
  5
7
330
0
100
AcDbSymbolTable
 70
    0
  0
ENDTAB
  0
TABLE
  2
APPID
  5
9
330
0
100
AcDbSymbolTable
 70
    1
  0
APPID
  5
12
330
9
100
AcDbSymbolTableRecord
100
AcDbRegAppTableRecord
  2
ACAD
 70
    0
  0
APPID
  5
4C
330
9
100
AcDbSymbolTableRecord
100
AcDbRegAppTableRecord
  2
LibreCad
 70
    0
  0
ENDTAB
  0
TABLE
  2
DIMSTYLE
  5
A
330
0
100
AcDbSymbolTable
 70
    1
100
AcDbDimStyleTable
 71
    1
  0
DIMSTYLE
105
4D
330
A
100
AcDbSymbolTableRecord
100
AcDbDimStyleTableRecord
  2
Standard
 70
    0
 40
2.5
 41
2.5
 42
0.625
 43
0.38
 44
1.25
 45
0
 46
0
 47
0
 48
0
 49
1
140
2.5
141
0.09
142
0
143
25.4
144
1
145
0
146
1
147
0.625
148
0
 71
    0
 72
    0
 73
    0
 74
    1
 75
    0
 76
    0
 77
    0
 78
    8
 79
    0
170
    0
171
    2
172
    0
173
    0
174
    0
175
    0
176
    0
177
    0
178
    0
179
    0
271
    2
272
    4
273
    2
274
    2
275
    0
276
    0
277
    2
278
   44
279
    0
280
    0
281
    0
282
    0
283
    1
284
    0
285
    0
286
    0
288
    0
289
    3
340
STANDARD
341

371
   -2
372
   -2
  0
ENDTAB
  0
TABLE
  2
BLOCK_RECORD
  5
1
330
0
100
AcDbSymbolTable
 70
    2
  0
BLOCK_RECORD
  5
1F
330
1
100
AcDbSymbolTableRecord
100
AcDbBlockTableRecord
  2
*Model_Space
 70
    0
280
    1
281
    0
  0
BLOCK_RECORD
  5
1E
330
1
100
AcDbSymbolTableRecord
100
AcDbBlockTableRecord
  2
*Paper_Space
 70
    0
280
    1
281
    0
  0
ENDTAB
  0
ENDSEC
  0
SECTION
  2
BLOCKS
  0
BLOCK
  5
20
330
1F
100
AcDbEntity
  8
0
100
AcDbBlockBegin
  2
*Model_Space
 70
    0
 10
0
 20
0
 30
0
  3
*Model_Space
  1

  0
ENDBLK
  5
21
330
1F
100
AcDbEntity
  8
0
100
AcDbBlockEnd
  0
BLOCK
  5
1C
330
1B
100
AcDbEntity
  8
0
100
AcDbBlockBegin
  2
*Paper_Space
 70
    0
 10
0
 20
0
 30
0
  3
*Paper_Space
  1

  0
ENDBLK
  5
1D
330
1F
100
AcDbEntity
  8
0
100
AcDbBlockEnd
  0
ENDSEC
  0
SECTION
  2
ENTITIES
  0
HATCH
  5
4E
100
AcDbEntity
  8
0
  6
ByLayer
 62
  256
370
   -1
100
AcDbHatch
 10
0
 20
0
 30
0
210
0
220
0
230
1
  2
escher
 70
    0
 71
    0
 91
    1
 92
    0
 93
    5
 72
    1
 10
290
 20
-30
 11
290
 21
-100
 72
    1
 10
290
 20
-100
 11
190
 21
-100
 72
    1
 10
190
 20
-100
 11
190
 21
-20
 72
    1
 10
190
 20
-20
 11
290
 21
-20
 72
    1
 10
290
 20
-20
 11
290
 21
-30
 97
    0
 75
    0
 76
    1
 52
0
 41
0.7
 77
    0
 78
    0
 98
    0
  0
LINE
  5
4F
100
AcDbEntity
  8
1
  6
ByLayer
 62
    1
370
   -1
100
AcDbLine
 10
146.175
 20
-35.825
 11
155.825
 21
-35.825
  0
LINE
  5
50
100
AcDbEntity
  8
1
  6
ByLayer
 62
    1
370
   -1
100
AcDbLine
 10
155.825
 20
-35.825
 11
155.825
 21
-31
  0
ARC
  5
51
100
AcDbEntity
  8
1
  6
ByLayer
 62
    1
370
   -1
100
AcDbCircle
 10
156
 20
-31
 40
0.175
100
AcDbArc
 50
90
 51
180
  0
LINE
  5
52
100
AcDbEntity
  8
1
  6
ByLayer
 62
    1
370
   -1
100
AcDbLine
 10
156
 20
-30.825
 11
160.825
 21
-30.825
  0
LINE
  5
53
100
AcDbEntity
  8
1
  6
ByLayer
 62
    1
370
   -1
100
AcDbLine
 10
160.825
 20
-30.825
 11
160.825
 21
-21.175
  0
LINE
  5
54
100
AcDbEntity
  8
1
  6
ByLayer
 62
    1
370
   -1
100
AcDbLine
 10
160.825
 20
-21.175
 11
156
 21
-21.175
  0
ARC
  5
55
100
AcDbEntity
  8
1
  6
ByLayer
 62
    1
370
   -1
100
AcDbCircle
 10
156
 20
-21
 40
0.175
100
AcDbArc
 50
180
 51
-90
  0
LINE
  5
56
100
AcDbEntity
  8
1
  6
ByLayer
 62
    1
370
   -1
100
AcDbLine
 10
155.825
 20
-21
 11
155.825
 21
-1.175
  0
LINE
  5
57
100
AcDbEntity
  8
1
  6
ByLayer
 62
    1
370
   -1
100
AcDbLine
 10
155.825
 20
-1.175
 11
56.175
 21
-1.175
  0
LINE
  5
58
100
AcDbEntity
  8
1
  6
ByLayer
 62
    1
370
   -1
100
AcDbLine
 10
56.175
 20
-1.175
 11
56.175
 21
-21
  0
ARC
  5
59
100
AcDbEntity
  8
1
  6
ByLayer
 62
    1
370
   -1
100
AcDbCircle
 10
56
 20
-21
 40
0.175
100
AcDbArc
 50
-90
 51
0
  0
LINE
  5
5A
100
AcDbEntity
  8
1
  6
ByLayer
 62
    1
370
   -1
100
AcDbLine
 10
56
 20
-21.175
 11
51.175
 21
-21.175
  0
LINE
  5
5B
100
AcDbEntity
  8
1
  6
ByLayer
 62
    1
370
   -1
100
AcDbLine
 10
51.175
 20
-21.175
 11
51.175
 21
-30.825
  0
LINE
  5
5C
100
AcDbEntity
  8
1
  6
ByLayer
 62
    1
370
   -1
100
AcDbLine
 10
51.175
 20
-30.825
 11
56
 21
-30.825
  0
ARC
  5
5D
100
AcDbEntity
  8
1
  6
ByLayer
 62
    1
370
   -1
100
AcDbCircle
 10
56
 20
-31
 40
0.175
100
AcDbArc
 50
0
 51
90
  0
LINE
  5
5E
100
AcDbEntity
  8
1
  6
ByLayer
 62
    1
370
   -1
100
AcDbLine
 10
56.175
 20
-31
 11
56.175
 21
-35.825
  0
LINE
  5
5F
100
AcDbEntity
  8
1
  6
ByLayer
 62
    1
370
   -1
100
AcDbLine
 10
56.175
 20
-35.825
 11
71.825
 21
-35.825
  0
LINE
  5
60
100
AcDbEntity
  8
1
  6
ByLayer
 62
    1
370
   -1
100
AcDbLine
 10
71.825
 20
-35.825
 11
71.825
 21
-31
  0
ARC
  5
61
100
AcDbEntity
  8
1
  6
ByLayer
 62
    1
370
   -1
100
AcDbCircle
 10
72
 20
-31
 40
0.175
100
AcDbArc
 50
90
 51
180
  0
LINE
  5
62
100
AcDbEntity
  8
1
  6
ByLayer
 62
    1
370
   -1
100
AcDbLine
 10
72
 20
-30.825
 11
91
 21
-30.825
  0
ARC
  5
63
100
AcDbEntity
  8
1
  6
ByLayer
 62
    1
370
   -1
100
AcDbCircle
 10
91
 20
-31
 40
0.175
100
AcDbArc
 50
0
 51
90
  0
LINE
  5
64
100
AcDbEntity
  8
1
  6
ByLayer
 62
    1
370
   -1
100
AcDbLine
 10
91.175
 20
-31
 11
91.175
 21
-35.825
  0
LINE
  5
65
100
AcDbEntity
  8
1
  6
ByLayer
 62
    1
370
   -1
100
AcDbLine
 10
91.175
 20
-35.825
 11
120.825
 21
-35.825
  0
LINE
  5
66
100
AcDbEntity
  8
1
  6
ByLayer
 62
    1
370
   -1
100
AcDbLine
 10
120.825
 20
-35.825
 11
120.825
 21
-31
  0
ARC
  5
67
100
AcDbEntity
  8
1
  6
ByLayer
 62
    1
370
   -1
100
AcDbCircle
 10
121
 20
-31
 40
0.175
100
AcDbArc
 50
90
 51
180
  0
LINE
  5
68
100
AcDbEntity
  8
1
  6
ByLayer
 62
    1
370
   -1
100
AcDbLine
 10
121
 20
-30.825
 11
141
 21
-30.825
  0
ARC
  5
69
100
AcDbEntity
  8
1
  6
ByLayer
 62
    1
370
   -1
100
AcDbCircle
 10
141
 20
-31
 40
0.175
100
AcDbArc
 50
0
 51
90
  0
LINE
  5
6A
100
AcDbEntity
  8
1
  6
ByLayer
 62
    1
370
   -1
100
AcDbLine
 10
141.175
 20
-31
 11
141.175
 21
-35.825
  0
LINE
  5
6B
100
AcDbEntity
  8
1
  6
ByLayer
 62
    1
370
   -1
100
AcDbLine
 10
141.175
 20
-35.825
 11
146.175
 21
-35.825
  0
LINE
  5
6C
100
AcDbEntity
  8
1
  6
ByLayer
 62
    1
370
   -1
100
AcDbLine
 10
146
 20
-76.175
 11
36
 21
-76.175
  0
LINE
  5
6D
100
AcDbEntity
  8
1
  6
ByLayer
 62
    1
370
   -1
100
AcDbLine
 10
36
 20
-76.175
 11
28
 21
-76.175
  0
ARC
  5
6E
100
AcDbEntity
  8
1
  6
ByLayer
 62
    1
370
   -1
100
AcDbCircle
 10
28
 20
-76
 40
0.175
100
AcDbArc
 50
180
 51
-90
  0
LINE
  5
6F
100
AcDbEntity
  8
1
  6
ByLayer
 62
    1
370
   -1
100
AcDbLine
 10
27.825
 20
-76
 11
27.825
 21
-66.175
  0
LINE
  5
70
100
AcDbEntity
  8
1
  6
ByLayer
 62
    1
370
   -1
100
AcDbLine
 10
27.825
 20
-66.175
 11
23
 21
-66.175
  0
LINE
  5
71
100
AcDbEntity
  8
1
  6
ByLayer
 62
    1
370
   -1
100
AcDbLine
 10
23
 20
-66.175
 11
1
 21
-66.175
  0
ARC
  5
72
100
AcDbEntity
  8
1
  6
ByLayer
 62
    1
370
   -1
100
AcDbCircle
 10
1
 20
-66
 40
0.175
100
AcDbArc
 50
180
 51
-90
  0
LINE
  5
73
100
AcDbEntity
  8
1
  6
ByLayer
 62
    1
370
   -1
100
AcDbLine
 10
0.825
 20
-66
 11
0.825
 21
-56
  0
ARC
  5
74
100
AcDbEntity
  8
1
  6
ByLayer
 62
    1
370
   -1
100
AcDbCircle
 10
1
 20
-56
 40
0.175
100
AcDbArc
 50
90
 51
180
  0
LINE
  5
75
100
AcDbEntity
  8
1
  6
ByLayer
 62
    1
370
   -1
100
AcDbLine
 10
1
 20
-55.825
 11
5.825
 21
-55.825
  0
LINE
  5
76
100
AcDbEntity
  8
1
  6
ByLayer
 62
    1
370
   -1
100
AcDbLine
 10
5.825
 20
-55.825
 11
5.825
 21
-46.175
  0
LINE
  5
77
100
AcDbEntity
  8
1
  6
ByLayer
 62
    1
370
   -1
100
AcDbLine
 10
5.825
 20
-46.175
 11
1
 21
-46.175
  0
ARC
  5
78
100
AcDbEntity
  8
1
  6
ByLayer
 62
    1
370
   -1
100
AcDbCircle
 10
1
 20
-46
 40
0.175
100
AcDbArc
 50
180
 51
-90
  0
LINE
  5
79
100
AcDbEntity
  8
1
  6
ByLayer
 62
    1
370
   -1
100
AcDbLine
 10
0.825
 20
-46
 11
0.825
 21
-41
  0
ARC
  5
7A
100
AcDbEntity
  8
1
  6
ByLayer
 62
    1
370
   -1
100
AcDbCircle
 10
1
 20
-41
 40
0.175
100
AcDbArc
 50
90
 51
180
  0
LINE
  5
7B
100
AcDbEntity
  8
1
  6
ByLayer
 62
    1
370
   -1
100
AcDbLine
 10
1
 20
-40.825
 11
16
 21
-40.825
  0
ARC
  5
7C
100
AcDbEntity
  8
1
  6
ByLayer
 62
    1
370
   -1
100
AcDbCircle
 10
16
 20
-41
 40
0.175
100
AcDbArc
 50
0
 51
90
  0
LINE
  5
7D
100
AcDbEntity
  8
1
  6
ByLayer
 62
    1
370
   -1
100
AcDbLine
 10
16.175
 20
-41
 11
16.175
 21
-45.825
  0
LINE
  5
7E
100
AcDbEntity
  8
1
  6
ByLayer
 62
    1
370
   -1
100
AcDbLine
 10
16.175
 20
-45.825
 11
25.825
 21
-45.825
  0
LINE
  5
7F
100
AcDbEntity
  8
1
  6
ByLayer
 62
    1
370
   -1
100
AcDbLine
 10
25.825
 20
-45.825
 11
25.825
 21
-41
  0
ARC
  5
80
100
AcDbEntity
  8
1
  6
ByLayer
 62
    1
370
   -1
100
AcDbCircle
 10
26
 20
-41
 40
0.175
100
AcDbArc
 50
90
 51
180
  0
LINE
  5
81
100
AcDbEntity
  8
1
  6
ByLayer
 62
    1
370
   -1
100
AcDbLine
 10
26
 20
-40.825
 11
36
 21
-40.825
  0
ARC
  5
82
100
AcDbEntity
  8
1
  6
ByLayer
 62
    1
370
   -1
100
AcDbCircle
 10
36
 20
-41
 40
0.175
100
AcDbArc
 50
0
 51
90
  0
LINE
  5
83
100
AcDbEntity
  8
1
  6
ByLayer
 62
    1
370
   -1
100
AcDbLine
 10
36.175
 20
-41
 11
36.175
 21
-45.825
  0
LINE
  5
84
100
AcDbEntity
  8
1
  6
ByLayer
 62
    1
370
   -1
100
AcDbLine
 10
36.175
 20
-45.825
 11
65.825
 21
-45.825
  0
LINE
  5
85
100
AcDbEntity
  8
1
  6
ByLayer
 62
    1
370
   -1
100
AcDbLine
 10
65.825
 20
-45.825
 11
65.825
 21
-41
  0
ARC
  5
86
100
AcDbEntity
  8
1
  6
ByLayer
 62
    1
370
   -1
100
AcDbCircle
 10
66
 20
-41
 40
0.175
100
AcDbArc
 50
90
 51
180
  0
LINE
  5
87
100
AcDbEntity
  8
1
  6
ByLayer
 62
    1
370
   -1
100
AcDbLine
 10
66
 20
-40.825
 11
76
 21
-40.825
  0
ARC
  5
88
100
AcDbEntity
  8
1
  6
ByLayer
 62
    1
370
   -1
100
AcDbCircle
 10
76
 20
-41
 40
0.175
100
AcDbArc
 50
0
 51
90
  0
LINE
  5
89
100
AcDbEntity
  8
1
  6
ByLayer
 62
    1
370
   -1
100
AcDbLine
 10
76.175
 20
-41
 11
76.175
 21
-45.825
  0
LINE
  5
8A
100
AcDbEntity
  8
1
  6
ByLayer
 62
    1
370
   -1
100
AcDbLine
 10
76.175
 20
-45.825
 11
85.825
 21
-45.825
  0
LINE
  5
8B
100
AcDbEntity
  8
1
  6
ByLayer
 62
    1
370
   -1
100
AcDbLine
 10
85.825
 20
-45.825
 11
85.825
 21
-41
  0
ARC
  5
8C
100
AcDbEntity
  8
1
  6
ByLayer
 62
    1
370
   -1
100
AcDbCircle
 10
86
 20
-41
 40
0.175
100
AcDbArc
 50
90
 51
180
  0
LINE
  5
8D
100
AcDbEntity
  8
1
  6
ByLayer
 62
    1
370
   -1
100
AcDbLine
 10
86
 20
-40.825
 11
96
 21
-40.825
  0
ARC
  5
8E
100
AcDbEntity
  8
1
  6
ByLayer
 62
    1
370
   -1
100
AcDbCircle
 10
96
 20
-41
 40
0.175
100
AcDbArc
 50
0
 51
90
  0
LINE
  5
8F
100
AcDbEntity
  8
1
  6
ByLayer
 62
    1
370
   -1
100
AcDbLine
 10
96.175
 20
-41
 11
96.175
 21
-45.825
  0
LINE
  5
90
100
AcDbEntity
  8
1
  6
ByLayer
 62
    1
370
   -1
100
AcDbLine
 10
96.175
 20
-45.825
 11
125.825
 21
-45.825
  0
LINE
  5
91
100
AcDbEntity
  8
1
  6
ByLayer
 62
    1
370
   -1
100
AcDbLine
 10
125.825
 20
-45.825
 11
125.825
 21
-41
  0
ARC
  5
92
100
AcDbEntity
  8
1
  6
ByLayer
 62
    1
370
   -1
100
AcDbCircle
 10
126
 20
-41
 40
0.175
100
AcDbArc
 50
90
 51
180
  0
LINE
  5
93
100
AcDbEntity
  8
1
  6
ByLayer
 62
    1
370
   -1
100
AcDbLine
 10
126
 20
-40.825
 11
136
 21
-40.825
  0
ARC
  5
94
100
AcDbEntity
  8
1
  6
ByLayer
 62
    1
370
   -1
100
AcDbCircle
 10
136
 20
-41
 40
0.175
100
AcDbArc
 50
0
 51
90
  0
LINE
  5
95
100
AcDbEntity
  8
1
  6
ByLayer
 62
    1
370
   -1
100
AcDbLine
 10
136.175
 20
-41
 11
136.175
 21
-45.825
  0
LINE
  5
96
100
AcDbEntity
  8
1
  6
ByLayer
 62
    1
370
   -1
100
AcDbLine
 10
136.175
 20
-45.825
 11
145.825
 21
-45.825
  0
LINE
  5
97
100
AcDbEntity
  8
1
  6
ByLayer
 62
    1
370
   -1
100
AcDbLine
 10
145.825
 20
-45.825
 11
145.825
 21
-41
  0
ARC
  5
98
100
AcDbEntity
  8
1
  6
ByLayer
 62
    1
370
   -1
100
AcDbCircle
 10
146
 20
-41
 40
0.175
100
AcDbArc
 50
90
 51
180
  0
LINE
  5
99
100
AcDbEntity
  8
1
  6
ByLayer
 62
    1
370
   -1
100
AcDbLine
 10
146
 20
-40.825
 11
161
 21
-40.825
  0
ARC
  5
9A
100
AcDbEntity
  8
1
  6
ByLayer
 62
    1
370
   -1
100
AcDbCircle
 10
161
 20
-41
 40
0.175
100
AcDbArc
 50
0
 51
90
  0
LINE
  5
9B
100
AcDbEntity
  8
1
  6
ByLayer
 62
    1
370
   -1
100
AcDbLine
 10
161.175
 20
-41
 11
161.175
 21
-46
  0
ARC
  5
9C
100
AcDbEntity
  8
1
  6
ByLayer
 62
    1
370
   -1
100
AcDbCircle
 10
161
 20
-46
 40
0.175
100
AcDbArc
 50
-90
 51
0
  0
LINE
  5
9D
100
AcDbEntity
  8
1
  6
ByLayer
 62
    1
370
   -1
100
AcDbLine
 10
161
 20
-46.175
 11
156.175
 21
-46.175
  0
LINE
  5
9E
100
AcDbEntity
  8
1
  6
ByLayer
 62
    1
370
   -1
100
AcDbLine
 10
156.175
 20
-46.175
 11
156.175
 21
-55.825
  0
LINE
  5
9F
100
AcDbEntity
  8
1
  6
ByLayer
 62
    1
370
   -1
100
AcDbLine
 10
156.175
 20
-55.825
 11
161
 21
-55.825
  0
ARC
  5
A0
100
AcDbEntity
  8
1
  6
ByLayer
 62
    1
370
   -1
100
AcDbCircle
 10
161
 20
-56
 40
0.175
100
AcDbArc
 50
0
 51
90
  0
LINE
  5
A1
100
AcDbEntity
  8
1
  6
ByLayer
 62
    1
370
   -1
100
AcDbLine
 10
161.175
 20
-56
 11
161.175
 21
-66
  0
ARC
  5
A2
100
AcDbEntity
  8
1
  6
ByLayer
 62
    1
370
   -1
100
AcDbCircle
 10
161
 20
-66
 40
0.175
100
AcDbArc
 50
-90
 51
0
  0
LINE
  5
A3
100
AcDbEntity
  8
1
  6
ByLayer
 62
    1
370
   -1
100
AcDbLine
 10
161
 20
-66.175
 11
156.175
 21
-66.175
  0
LINE
  5
A4
100
AcDbEntity
  8
1
  6
ByLayer
 62
    1
370
   -1
100
AcDbLine
 10
156.175
 20
-66.175
 11
156.175
 21
-76
  0
ARC
  5
A5
100
AcDbEntity
  8
1
  6
ByLayer
 62
    1
370
   -1
100
AcDbCircle
 10
156
 20
-76
 40
0.175
100
AcDbArc
 50
-90
 51
0
  0
LINE
  5
A6
100
AcDbEntity
  8
1
  6
ByLayer
 62
    1
370
   -1
100
AcDbLine
 10
156
 20
-76.175
 11
146
 21
-76.175
  0
LINE
  5
A7
100
AcDbEntity
  8
1
  6
ByLayer
 62
    1
370
   -1
100
AcDbLine
 10
305.825
 20
-80.825
 11
305.825
 21
-6.175
  0
LINE
  5
A8
100
AcDbEntity
  8
1
  6
ByLayer
 62
    1
370
   -1
100
AcDbLine
 10
305.825
 20
-6.175
 11
168.175
 21
-6.175
  0
LINE
  5
A9
100
AcDbEntity
  8
1
  6
ByLayer
 62
    1
370
   -1
100
AcDbLine
 10
168.175
 20
-6.175
 11
168.175
 21
-10.825
  0
LINE
  5
AA
100
AcDbEntity
  8
1
  6
ByLayer
 62
    1
370
   -1
100
AcDbLine
 10
168.175
 20
-10.825
 11
173
 21
-10.825
  0
ARC
  5
AB
100
AcDbEntity
  8
1
  6
ByLayer
 62
    1
370
   -1
100
AcDbCircle
 10
173
 20
-11
 40
0.175
100
AcDbArc
 50
0
 51
90
  0
LINE
  5
AC
100
AcDbEntity
  8
1
  6
ByLayer
 62
    1
370
   -1
100
AcDbLine
 10
173.175
 20
-11
 11
173.175
 21
-26
  0
ARC
  5
AD
100
AcDbEntity
  8
1
  6
ByLayer
 62
    1
370
   -1
100
AcDbCircle
 10
173
 20
-26
 40
0.175
100
AcDbArc
 50
-90
 51
0
  0
LINE
  5
AE
100
AcDbEntity
  8
1
  6
ByLayer
 62
    1
370
   -1
100
AcDbLine
 10
173
 20
-26.175
 11
168.175
 21
-26.175
  0
LINE
  5
AF
100
AcDbEntity
  8
1
  6
ByLayer
 62
    1
370
   -1
100
AcDbLine
 10
168.175
 20
-26.175
 11
168.175
 21
-45.825
  0
LINE
  5
B0
100
AcDbEntity
  8
1
  6
ByLayer
 62
    1
370
   -1
100
AcDbLine
 10
168.175
 20
-45.825
 11
173
 21
-45.825
  0
ARC
  5
B1
100
AcDbEntity
  8
1
  6
ByLayer
 62
    1
370
   -1
100
AcDbCircle
 10
173
 20
-46
 40
0.175
100
AcDbArc
 50
0
 51
90
  0
LINE
  5
B2
100
AcDbEntity
  8
1
  6
ByLayer
 62
    1
370
   -1
100
AcDbLine
 10
173.175
 20
-46
 11
173.175
 21
-76
  0
ARC
  5
B3
100
AcDbEntity
  8
1
  6
ByLayer
 62
    1
370
   -1
100
AcDbCircle
 10
173
 20
-76
 40
0.175
100
AcDbArc
 50
-90
 51
0
  0
LINE
  5
B4
100
AcDbEntity
  8
1
  6
ByLayer
 62
    1
370
   -1
100
AcDbLine
 10
173
 20
-76.175
 11
168.175
 21
-76.175
  0
LINE
  5
B5
100
AcDbEntity
  8
1
  6
ByLayer
 62
    1
370
   -1
100
AcDbLine
 10
168.175
 20
-76.175
 11
168.175
 21
-94.825
  0
LINE
  5
B6
100
AcDbEntity
  8
1
  6
ByLayer
 62
    1
370
   -1
100
AcDbLine
 10
168.175
 20
-94.825
 11
173
 21
-94.825
  0
ARC
  5
B7
100
AcDbEntity
  8
1
  6
ByLayer
 62
    1
370
   -1
100
AcDbCircle
 10
173
 20
-95
 40
0.175
100
AcDbArc
 50
0
 51
90
  0
LINE
  5
B8
100
AcDbEntity
  8
1
  6
ByLayer
 62
    1
370
   -1
100
AcDbLine
 10
173.175
 20
-95
 11
173.175
 21
-106
  0
LINE
  5
B9
100
AcDbEntity
  8
1
  6
ByLayer
 62
    1
370
   -1
100
AcDbLine
 10
173.175
 20
-106
 11
173.175
 21
-111
  0
ARC
  5
BA
100
AcDbEntity
  8
1
  6
ByLayer
 62
    1
370
   -1
100
AcDbCircle
 10
173
 20
-111
 40
0.175
100
AcDbArc
 50
-90
 51
0
  0
LINE
  5
BB
100
AcDbEntity
  8
1
  6
ByLayer
 62
    1
370
   -1
100
AcDbLine
 10
173
 20
-111.175
 11
168.175
 21
-111.175
  0
LINE
  5
BC
100
AcDbEntity
  8
1
  6
ByLayer
 62
    1
370
   -1
100
AcDbLine
 10
168.175
 20
-111.175
 11
168.175
 21
-115.825
  0
LINE
  5
BD
100
AcDbEntity
  8
1
  6
ByLayer
 62
    1
370
   -1
100
AcDbLine
 10
168.175
 20
-115.825
 11
301
 21
-115.825
  0
LINE
  5
BE
100
AcDbEntity
  8
1
  6
ByLayer
 62
    1
370
   -1
100
AcDbLine
 10
301
 20
-115.825
 11
305.825
 21
-115.825
  0
LINE
  5
BF
100
AcDbEntity
  8
1
  6
ByLayer
 62
    1
370
   -1
100
AcDbLine
 10
305.825
 20
-115.825
 11
305.825
 21
-80.825
  0
LINE
  5
C0
100
AcDbEntity
  8
1
  6
ByLayer
 62
    1
370
   -1
100
AcDbLine
 10
381.175
 20
-81
 11
381.175
 21
-113.5
  0
LINE
  5
C1
100
AcDbEntity
  8
1
  6
ByLayer
 62
    1
370
   -1
100
AcDbLine
 10
381.175
 20
-113.5
 11
381.175
 21
-116
  0
ARC
  5
C2
100
AcDbEntity
  8
1
  6
ByLayer
 62
    1
370
   -1
100
AcDbCircle
 10
381
 20
-116
 40
0.175
100
AcDbArc
 50
-90
 51
0
  0
LINE
  5
C3
100
AcDbEntity
  8
1
  6
ByLayer
 62
    1
370
   -1
100
AcDbLine
 10
381
 20
-116.175
 11
371
 21
-116.175
  0
ARC
  5
C4
100
AcDbEntity
  8
1
  6
ByLayer
 62
    1
370
   -1
100
AcDbCircle
 10
371
 20
-116
 40
0.175
100
AcDbArc
 50
180
 51
-90
  0
LINE
  5
C5
100
AcDbEntity
  8
1
  6
ByLayer
 62
    1
370
   -1
100
AcDbLine
 10
370.825
 20
-116
 11
370.825
 21
-111.175
  0
LINE
  5
C6
100
AcDbEntity
  8
1
  6
ByLayer
 62
    1
370
   -1
100
AcDbLine
 10
370.825
 20
-111.175
 11
361.175
 21
-111.175
  0
LINE
  5
C7
100
AcDbEntity
  8
1
  6
ByLayer
 62
    1
370
   -1
100
AcDbLine
 10
361.175
 20
-111.175
 11
361.175
 21
-116
  0
ARC
  5
C8
100
AcDbEntity
  8
1
  6
ByLayer
 62
    1
370
   -1
100
AcDbCircle
 10
361
 20
-116
 40
0.175
100
AcDbArc
 50
-90
 51
0
  0
LINE
  5
C9
100
AcDbEntity
  8
1
  6
ByLayer
 62
    1
370
   -1
100
AcDbLine
 10
361
 20
-116.175
 11
351
 21
-116.175
  0
ARC
  5
CA
100
AcDbEntity
  8
1
  6
ByLayer
 62
    1
370
   -1
100
AcDbCircle
 10
351
 20
-116
 40
0.175
100
AcDbArc
 50
180
 51
-90
  0
LINE
  5
CB
100
AcDbEntity
  8
1
  6
ByLayer
 62
    1
370
   -1
100
AcDbLine
 10
350.825
 20
-116
 11
350.825
 21
-111.175
  0
LINE
  5
CC
100
AcDbEntity
  8
1
  6
ByLayer
 62
    1
370
   -1
100
AcDbLine
 10
350.825
 20
-111.175
 11
346
 21
-111.175
  0
ARC
  5
CD
100
AcDbEntity
  8
1
  6
ByLayer
 62
    1
370
   -1
100
AcDbCircle
 10
346
 20
-111
 40
0.175
100
AcDbArc
 50
180
 51
-90
  0
LINE
  5
CE
100
AcDbEntity
  8
1
  6
ByLayer
 62
    1
370
   -1
100
AcDbLine
 10
345.825
 20
-111
 11
345.825
 21
-101
  0
ARC
  5
CF
100
AcDbEntity
  8
1
  6
ByLayer
 62
    1
370
   -1
100
AcDbCircle
 10
346
 20
-101
 40
0.175
100
AcDbArc
 50
90
 51
180
  0
LINE
  5
D0
100
AcDbEntity
  8
1
  6
ByLayer
 62
    1
370
   -1
100
AcDbLine
 10
346
 20
-100.825
 11
350.825
 21
-100.825
  0
LINE
  5
D1
100
AcDbEntity
  8
1
  6
ByLayer
 62
    1
370
   -1
100
AcDbLine
 10
350.825
 20
-100.825
 11
350.825
 21
-91.175
  0
LINE
  5
D2
100
AcDbEntity
  8
1
  6
ByLayer
 62
    1
370
   -1
100
AcDbLine
 10
350.825
 20
-91.175
 11
346
 21
-91.175
  0
ARC
  5
D3
100
AcDbEntity
  8
1
  6
ByLayer
 62
    1
370
   -1
100
AcDbCircle
 10
346
 20
-91
 40
0.175
100
AcDbArc
 50
180
 51
-90
  0
LINE
  5
D4
100
AcDbEntity
  8
1
  6
ByLayer
 62
    1
370
   -1
100
AcDbLine
 10
345.825
 20
-91
 11
345.825
 21
-71
  0
ARC
  5
D5
100
AcDbEntity
  8
1
  6
ByLayer
 62
    1
370
   -1
100
AcDbCircle
 10
346
 20
-71
 40
0.175
100
AcDbArc
 50
90
 51
180
  0
LINE
  5
D6
100
AcDbEntity
  8
1
  6
ByLayer
 62
    1
370
   -1
100
AcDbLine
 10
346
 20
-70.825
 11
350.825
 21
-70.825
  0
LINE
  5
D7
100
AcDbEntity
  8
1
  6
ByLayer
 62
    1
370
   -1
100
AcDbLine
 10
350.825
 20
-70.825
 11
350.825
 21
-51.175
  0
LINE
  5
D8
100
AcDbEntity
  8
1
  6
ByLayer
 62
    1
370
   -1
100
AcDbLine
 10
350.825
 20
-51.175
 11
346
 21
-51.175
  0
ARC
  5
D9
100
AcDbEntity
  8
1
  6
ByLayer
 62
    1
370
   -1
100
AcDbCircle
 10
346
 20
-51
 40
0.175
100
AcDbArc
 50
180
 51
-90
  0
LINE
  5
DA
100
AcDbEntity
  8
1
  6
ByLayer
 62
    1
370
   -1
100
AcDbLine
 10
345.825
 20
-51
 11
345.825
 21
-31
  0
ARC
  5
DB
100
AcDbEntity
  8
1
  6
ByLayer
 62
    1
370
   -1
100
AcDbCircle
 10
346
 20
-31
 40
0.175
100
AcDbArc
 50
90
 51
180
  0
LINE
  5
DC
100
AcDbEntity
  8
1
  6
ByLayer
 62
    1
370
   -1
100
AcDbLine
 10
346
 20
-30.825
 11
350.825
 21
-30.825
  0
LINE
  5
DD
100
AcDbEntity
  8
1
  6
ByLayer
 62
    1
370
   -1
100
AcDbLine
 10
350.825
 20
-30.825
 11
350.825
 21
-21.175
  0
LINE
  5
DE
100
AcDbEntity
  8
1
  6
ByLayer
 62
    1
370
   -1
100
AcDbLine
 10
350.825
 20
-21.175
 11
346
 21
-21.175
  0
ARC
  5
DF
100
AcDbEntity
  8
1
  6
ByLayer
 62
    1
370
   -1
100
AcDbCircle
 10
346
 20
-21
 40
0.175
100
AcDbArc
 50
180
 51
-90
  0
LINE
  5
E0
100
AcDbEntity
  8
1
  6
ByLayer
 62
    1
370
   -1
100
AcDbLine
 10
345.825
 20
-21
 11
345.825
 21
-11
  0
ARC
  5
E1
100
AcDbEntity
  8
1
  6
ByLayer
 62
    1
370
   -1
100
AcDbCircle
 10
346
 20
-11
 40
0.175
100
AcDbArc
 50
90
 51
180
  0
LINE
  5
E2
100
AcDbEntity
  8
1
  6
ByLayer
 62
    1
370
   -1
100
AcDbLine
 10
346
 20
-10.825
 11
350.825
 21
-10.825
  0
LINE
  5
E3
100
AcDbEntity
  8
1
  6
ByLayer
 62
    1
370
   -1
100
AcDbLine
 10
350.825
 20
-10.825
 11
350.825
 21
-6
  0
ARC
  5
E4
100
AcDbEntity
  8
1
  6
ByLayer
 62
    1
370
   -1
100
AcDbCircle
 10
351
 20
-6
 40
0.175
100
AcDbArc
 50
90
 51
180
  0
LINE
  5
E5
100
AcDbEntity
  8
1
  6
ByLayer
 62
    1
370
   -1
100
AcDbLine
 10
351
 20
-5.825
 11
361
 21
-5.825
  0
ARC
  5
E6
100
AcDbEntity
  8
1
  6
ByLayer
 62
    1
370
   -1
100
AcDbCircle
 10
361
 20
-6
 40
0.175
100
AcDbArc
 50
0
 51
90
  0
LINE
  5
E7
100
AcDbEntity
  8
1
  6
ByLayer
 62
    1
370
   -1
100
AcDbLine
 10
361.175
 20
-6
 11
361.175
 21
-10.825
  0
LINE
  5
E8
100
AcDbEntity
  8
1
  6
ByLayer
 62
    1
370
   -1
100
AcDbLine
 10
361.175
 20
-10.825
 11
370.825
 21
-10.825
  0
LINE
  5
E9
100
AcDbEntity
  8
1
  6
ByLayer
 62
    1
370
   -1
100
AcDbLine
 10
370.825
 20
-10.825
 11
370.825
 21
-6
  0
ARC
  5
EA
100
AcDbEntity
  8
1
  6
ByLayer
 62
    1
370
   -1
100
AcDbCircle
 10
371
 20
-6
 40
0.175
100
AcDbArc
 50
90
 51
180
  0
LINE
  5
EB
100
AcDbEntity
  8
1
  6
ByLayer
 62
    1
370
   -1
100
AcDbLine
 10
371
 20
-5.825
 11
381
 21
-5.825
  0
ARC
  5
EC
100
AcDbEntity
  8
1
  6
ByLayer
 62
    1
370
   -1
100
AcDbCircle
 10
381
 20
-6
 40
0.175
100
AcDbArc
 50
0
 51
90
  0
LINE
  5
ED
100
AcDbEntity
  8
1
  6
ByLayer
 62
    1
370
   -1
100
AcDbLine
 10
381.175
 20
-6
 11
381.175
 21
-81
  0
LINE
  5
EE
100
AcDbEntity
  8
1
  6
ByLayer
 62
    1
370
   -1
100
AcDbLine
 10
416.175
 20
-81
 11
416.175
 21
-111
  0
ARC
  5
EF
100
AcDbEntity
  8
1
  6
ByLayer
 62
    1
370
   -1
100
AcDbCircle
 10
416
 20
-111
 40
0.175
100
AcDbArc
 50
-90
 51
0
  0
LINE
  5
F0
100
AcDbEntity
  8
1
  6
ByLayer
 62
    1
370
   -1
100
AcDbLine
 10
416
 20
-111.175
 11
406.175
 21
-111.175
  0
LINE
  5
F1
100
AcDbEntity
  8
1
  6
ByLayer
 62
    1
370
   -1
100
AcDbLine
 10
406.175
 20
-111.175
 11
406.175
 21
-116
  0
ARC
  5
F2
100
AcDbEntity
  8
1
  6
ByLayer
 62
    1
370
   -1
100
AcDbCircle
 10
406
 20
-116
 40
0.175
100
AcDbArc
 50
-90
 51
0
  0
LINE
  5
F3
100
AcDbEntity
  8
1
  6
ByLayer
 62
    1
370
   -1
100
AcDbLine
 10
406
 20
-116.175
 11
396
 21
-116.175
  0
ARC
  5
F4
100
AcDbEntity
  8
1
  6
ByLayer
 62
    1
370
   -1
100
AcDbCircle
 10
396
 20
-116
 40
0.175
100
AcDbArc
 50
180
 51
-90
  0
LINE
  5
F5
100
AcDbEntity
  8
1
  6
ByLayer
 62
    1
370
   -1
100
AcDbLine
 10
395.825
 20
-116
 11
395.825
 21
-111.175
  0
LINE
  5
F6
100
AcDbEntity
  8
1
  6
ByLayer
 62
    1
370
   -1
100
AcDbLine
 10
395.825
 20
-111.175
 11
391
 21
-111.175
  0
ARC
  5
F7
100
AcDbEntity
  8
1
  6
ByLayer
 62
    1
370
   -1
100
AcDbCircle
 10
391
 20
-111
 40
0.175
100
AcDbArc
 50
180
 51
-90
  0
LINE
  5
F8
100
AcDbEntity
  8
1
  6
ByLayer
 62
    1
370
   -1
100
AcDbLine
 10
390.825
 20
-111
 11
390.825
 21
-101
  0
ARC
  5
F9
100
AcDbEntity
  8
1
  6
ByLayer
 62
    1
370
   -1
100
AcDbCircle
 10
391
 20
-101
 40
0.175
100
AcDbArc
 50
90
 51
180
  0
LINE
  5
FA
100
AcDbEntity
  8
1
  6
ByLayer
 62
    1
370
   -1
100
AcDbLine
 10
391
 20
-100.825
 11
395.825
 21
-100.825
  0
LINE
  5
FB
100
AcDbEntity
  8
1
  6
ByLayer
 62
    1
370
   -1
100
AcDbLine
 10
395.825
 20
-100.825
 11
395.825
 21
-91.175
  0
LINE
  5
FC
100
AcDbEntity
  8
1
  6
ByLayer
 62
    1
370
   -1
100
AcDbLine
 10
395.825
 20
-91.175
 11
391
 21
-91.175
  0
ARC
  5
FD
100
AcDbEntity
  8
1
  6
ByLayer
 62
    1
370
   -1
100
AcDbCircle
 10
391
 20
-91
 40
0.175
100
AcDbArc
 50
180
 51
-90
  0
LINE
  5
FE
100
AcDbEntity
  8
1
  6
ByLayer
 62
    1
370
   -1
100
AcDbLine
 10
390.825
 20
-91
 11
390.825
 21
-71
  0
ARC
  5
FF
100
AcDbEntity
  8
1
  6
ByLayer
 62
    1
370
   -1
100
AcDbCircle
 10
391
 20
-71
 40
0.175
100
AcDbArc
 50
90
 51
180
  0
LINE
  5
100
100
AcDbEntity
  8
1
  6
ByLayer
 62
    1
370
   -1
100
AcDbLine
 10
391
 20
-70.825
 11
395.825
 21
-70.825
  0
LINE
  5
101
100
AcDbEntity
  8
1
  6
ByLayer
 62
    1
370
   -1
100
AcDbLine
 10
395.825
 20
-70.825
 11
395.825
 21
-51.175
  0
LINE
  5
102
100
AcDbEntity
  8
1
  6
ByLayer
 62
    1
370
   -1
100
AcDbLine
 10
395.825
 20
-51.175
 11
391
 21
-51.175
  0
ARC
  5
103
100
AcDbEntity
  8
1
  6
ByLayer
 62
    1
370
   -1
100
AcDbCircle
 10
391
 20
-51
 40
0.175
100
AcDbArc
 50
180
 51
-90
  0
LINE
  5
104
100
AcDbEntity
  8
1
  6
ByLayer
 62
    1
370
   -1
100
AcDbLine
 10
390.825
 20
-51
 11
390.825
 21
-31
  0
ARC
  5
105
100
AcDbEntity
  8
1
  6
ByLayer
 62
    1
370
   -1
100
AcDbCircle
 10
391
 20
-31
 40
0.175
100
AcDbArc
 50
90
 51
180
  0
LINE
  5
106
100
AcDbEntity
  8
1
  6
ByLayer
 62
    1
370
   -1
100
AcDbLine
 10
391
 20
-30.825
 11
395.825
 21
-30.825
  0
LINE
  5
107
100
AcDbEntity
  8
1
  6
ByLayer
 62
    1
370
   -1
100
AcDbLine
 10
395.825
 20
-30.825
 11
395.825
 21
-21.175
  0
LINE
  5
108
100
AcDbEntity
  8
1
  6
ByLayer
 62
    1
370
   -1
100
AcDbLine
 10
395.825
 20
-21.175
 11
391
 21
-21.175
  0
ARC
  5
109
100
AcDbEntity
  8
1
  6
ByLayer
 62
    1
370
   -1
100
AcDbCircle
 10
391
 20
-21
 40
0.175
100
AcDbArc
 50
180
 51
-90
  0
LINE
  5
10A
100
AcDbEntity
  8
1
  6
ByLayer
 62
    1
370
   -1
100
AcDbLine
 10
390.825
 20
-21
 11
390.825
 21
-11
  0
ARC
  5
10B
100
AcDbEntity
  8
1
  6
ByLayer
 62
    1
370
   -1
100
AcDbCircle
 10
391
 20
-11
 40
0.175
100
AcDbArc
 50
90
 51
180
  0
LINE
  5
10C
100
AcDbEntity
  8
1
  6
ByLayer
 62
    1
370
   -1
100
AcDbLine
 10
391
 20
-10.825
 11
395.825
 21
-10.825
  0
LINE
  5
10D
100
AcDbEntity
  8
1
  6
ByLayer
 62
    1
370
   -1
100
AcDbLine
 10
395.825
 20
-10.825
 11
395.825
 21
-6
  0
ARC
  5
10E
100
AcDbEntity
  8
1
  6
ByLayer
 62
    1
370
   -1
100
AcDbCircle
 10
396
 20
-6
 40
0.175
100
AcDbArc
 50
90
 51
180
  0
LINE
  5
10F
100
AcDbEntity
  8
1
  6
ByLayer
 62
    1
370
   -1
100
AcDbLine
 10
396
 20
-5.825
 11
406
 21
-5.825
  0
ARC
  5
110
100
AcDbEntity
  8
1
  6
ByLayer
 62
    1
370
   -1
100
AcDbCircle
 10
406
 20
-6
 40
0.175
100
AcDbArc
 50
0
 51
90
  0
LINE
  5
111
100
AcDbEntity
  8
1
  6
ByLayer
 62
    1
370
   -1
100
AcDbLine
 10
406.175
 20
-6
 11
406.175
 21
-10.825
  0
LINE
  5
112
100
AcDbEntity
  8
1
  6
ByLayer
 62
    1
370
   -1
100
AcDbLine
 10
406.175
 20
-10.825
 11
416
 21
-10.825
  0
ARC
  5
113
100
AcDbEntity
  8
1
  6
ByLayer
 62
    1
370
   -1
100
AcDbCircle
 10
416
 20
-11
 40
0.175
100
AcDbArc
 50
0
 51
90
  0
LINE
  5
114
100
AcDbEntity
  8
1
  6
ByLayer
 62
    1
370
   -1
100
AcDbLine
 10
416.175
 20
-11
 11
416.175
 21
-81
  0
LINE
  5
115
100
AcDbEntity
  8
1
  6
ByLayer
 62
    1
370
   -1
100
AcDbLine
 10
452.175
 20
-58
 11
452.175
 21
-111
  0
ARC
  5
116
100
AcDbEntity
  8
1
  6
ByLayer
 62
    1
370
   -1
100
AcDbCircle
 10
452
 20
-111
 40
0.175
100
AcDbArc
 50
-90
 51
0
  0
LINE
  5
117
100
AcDbEntity
  8
1
  6
ByLayer
 62
    1
370
   -1
100
AcDbLine
 10
452
 20
-111.175
 11
432
 21
-111.175
  0
ARC
  5
118
100
AcDbEntity
  8
1
  6
ByLayer
 62
    1
370
   -1
100
AcDbCircle
 10
432
 20
-111
 40
0.175
100
AcDbArc
 50
180
 51
-90
  0
LINE
  5
119
100
AcDbEntity
  8
1
  6
ByLayer
 62
    1
370
   -1
100
AcDbLine
 10
431.825
 20
-111
 11
431.825
 21
-91.175
  0
LINE
  5
11A
100
AcDbEntity
  8
1
  6
ByLayer
 62
    1
370
   -1
100
AcDbLine
 10
431.825
 20
-91.175
 11
427
 21
-91.175
  0
ARC
  5
11B
100
AcDbEntity
  8
1
  6
ByLayer
 62
    1
370
   -1
100
AcDbCircle
 10
427
 20
-91
 40
0.175
100
AcDbArc
 50
180
 51
-90
  0
LINE
  5
11C
100
AcDbEntity
  8
1
  6
ByLayer
 62
    1
370
   -1
100
AcDbLine
 10
426.825
 20
-91
 11
426.825
 21
-81
  0
ARC
  5
11D
100
AcDbEntity
  8
1
  6
ByLayer
 62
    1
370
   -1
100
AcDbCircle
 10
427
 20
-81
 40
0.175
100
AcDbArc
 50
90
 51
180
  0
LINE
  5
11E
100
AcDbEntity
  8
1
  6
ByLayer
 62
    1
370
   -1
100
AcDbLine
 10
427
 20
-80.825
 11
431.825
 21
-80.825
  0
LINE
  5
11F
100
AcDbEntity
  8
1
  6
ByLayer
 62
    1
370
   -1
100
AcDbLine
 10
431.825
 20
-80.825
 11
431.825
 21
-71.175
  0
LINE
  5
120
100
AcDbEntity
  8
1
  6
ByLayer
 62
    1
370
   -1
100
AcDbLine
 10
431.825
 20
-71.175
 11
427
 21
-71.175
  0
ARC
  5
121
100
AcDbEntity
  8
1
  6
ByLayer
 62
    1
370
   -1
100
AcDbCircle
 10
427
 20
-71
 40
0.175
100
AcDbArc
 50
180
 51
-90
  0
LINE
  5
122
100
AcDbEntity
  8
1
  6
ByLayer
 62
    1
370
   -1
100
AcDbLine
 10
426.825
 20
-71
 11
426.825
 21
-51
  0
ARC
  5
123
100
AcDbEntity
  8
1
  6
ByLayer
 62
    1
370
   -1
100
AcDbCircle
 10
427
 20
-51
 40
0.175
100
AcDbArc
 50
90
 51
180
  0
LINE
  5
124
100
AcDbEntity
  8
1
  6
ByLayer
 62
    1
370
   -1
100
AcDbLine
 10
427
 20
-50.825
 11
431.825
 21
-50.825
  0
LINE
  5
125
100
AcDbEntity
  8
1
  6
ByLayer
 62
    1
370
   -1
100
AcDbLine
 10
431.825
 20
-50.825
 11
431.825
 21
-41.175
  0
LINE
  5
126
100
AcDbEntity
  8
1
  6
ByLayer
 62
    1
370
   -1
100
AcDbLine
 10
431.825
 20
-41.175
 11
427
 21
-41.175
  0
ARC
  5
127
100
AcDbEntity
  8
1
  6
ByLayer
 62
    1
370
   -1
100
AcDbCircle
 10
427
 20
-41
 40
0.175
100
AcDbArc
 50
180
 51
-90
  0
LINE
  5
128
100
AcDbEntity
  8
1
  6
ByLayer
 62
    1
370
   -1
100
AcDbLine
 10
426.825
 20
-41
 11
426.825
 21
-31
  0
ARC
  5
129
100
AcDbEntity
  8
1
  6
ByLayer
 62
    1
370
   -1
100
AcDbCircle
 10
427
 20
-31
 40
0.175
100
AcDbArc
 50
90
 51
180
  0
LINE
  5
12A
100
AcDbEntity
  8
1
  6
ByLayer
 62
    1
370
   -1
100
AcDbLine
 10
427
 20
-30.825
 11
431.825
 21
-30.825
  0
LINE
  5
12B
100
AcDbEntity
  8
1
  6
ByLayer
 62
    1
370
   -1
100
AcDbLine
 10
431.825
 20
-30.825
 11
431.825
 21
-11
  0
ARC
  5
12C
100
AcDbEntity
  8
1
  6
ByLayer
 62
    1
370
   -1
100
AcDbCircle
 10
432
 20
-11
 40
0.175
100
AcDbArc
 50
90
 51
180
  0
LINE
  5
12D
100
AcDbEntity
  8
1
  6
ByLayer
 62
    1
370
   -1
100
AcDbLine
 10
432
 20
-10.825
 11
452
 21
-10.825
  0
ARC
  5
12E
100
AcDbEntity
  8
1
  6
ByLayer
 62
    1
370
   -1
100
AcDbCircle
 10
452
 20
-11
 40
0.175
100
AcDbArc
 50
0
 51
90
  0
LINE
  5
12F
100
AcDbEntity
  8
1
  6
ByLayer
 62
    1
370
   -1
100
AcDbLine
 10
452.175
 20
-11
 11
452.175
 21
-58
  0
LINE
  5
130
100
AcDbEntity
  8
1
  6
ByLayer
 62
    1
370
   -1
100
AcDbLine
 10
478.175
 20
-39.493
 11
478.175
 21
-40.825
  0
LINE
  5
131
100
AcDbEntity
  8
1
  6
ByLayer
 62
    1
370
   -1
100
AcDbLine
 10
478.175
 20
-40.825
 11
482.825
 21
-40.825
  0
LINE
  5
132
100
AcDbEntity
  8
1
  6
ByLayer
 62
    1
370
   -1
100
AcDbLine
 10
482.825
 20
-40.825
 11
482.825
 21
-31.175
  0
LINE
  5
133
100
AcDbEntity
  8
1
  6
ByLayer
 62
    1
370
   -1
100
AcDbLine
 10
482.825
 20
-31.175
 11
478.175
 21
-31.175
  0
LINE
  5
134
100
AcDbEntity
  8
1
  6
ByLayer
 62
    1
370
   -1
100
AcDbLine
 10
478.175
 20
-31.175
 11
478.175
 21
-39.493
  0
LINE
  5
135
100
AcDbEntity
  8
1
  6
ByLayer
 62
    1
370
   -1
100
AcDbLine
 10
478.175
 20
-69.43899999999999
 11
478.175
 21
-70.825
  0
LINE
  5
136
100
AcDbEntity
  8
1
  6
ByLayer
 62
    1
370
   -1
100
AcDbLine
 10
478.175
 20
-70.825
 11
482.825
 21
-70.825
  0
LINE
  5
137
100
AcDbEntity
  8
1
  6
ByLayer
 62
    1
370
   -1
100
AcDbLine
 10
482.825
 20
-70.825
 11
482.825
 21
-51.175
  0
LINE
  5
138
100
AcDbEntity
  8
1
  6
ByLayer
 62
    1
370
   -1
100
AcDbLine
 10
482.825
 20
-51.175
 11
478.175
 21
-51.175
  0
LINE
  5
139
100
AcDbEntity
  8
1
  6
ByLayer
 62
    1
370
   -1
100
AcDbLine
 10
478.175
 20
-51.175
 11
478.175
 21
-69.43899999999999
  0
LINE
  5
13A
100
AcDbEntity
  8
1
  6
ByLayer
 62
    1
370
   -1
100
AcDbLine
 10
478.525
 20
-80.825
 11
483
 21
-80.825
  0
ARC
  5
13B
100
AcDbEntity
  8
1
  6
ByLayer
 62
    1
370
   -1
100
AcDbCircle
 10
483
 20
-81
 40
0.175
100
AcDbArc
 50
0
 51
90
  0
LINE
  5
13C
100
AcDbEntity
  8
1
  6
ByLayer
 62
    1
370
   -1
100
AcDbLine
 10
483.175
 20
-81
 11
483.175
 21
-91
  0
ARC
  5
13D
100
AcDbEntity
  8
1
  6
ByLayer
 62
    1
370
   -1
100
AcDbCircle
 10
483
 20
-91
 40
0.175
100
AcDbArc
 50
-90
 51
0
  0
LINE
  5
13E
100
AcDbEntity
  8
1
  6
ByLayer
 62
    1
370
   -1
100
AcDbLine
 10
483
 20
-91.175
 11
478
 21
-91.175
  0
ARC
  5
13F
100
AcDbEntity
  8
1
  6
ByLayer
 62
    1
370
   -1
100
AcDbCircle
 10
478
 20
-91
 40
0.175
100
AcDbArc
 50
180
 51
-90
  0
LINE
  5
140
100
AcDbEntity
  8
1
  6
ByLayer
 62
    1
370
   -1
100
AcDbLine
 10
477.825
 20
-91
 11
477.825
 21
-81
  0
ARC
  5
141
100
AcDbEntity
  8
1
  6
ByLayer
 62
    1
370
   -1
100
AcDbCircle
 10
478
 20
-81
 40
0.175
100
AcDbArc
 50
90
 51
180
  0
LINE
  5
142
100
AcDbEntity
  8
1
  6
ByLayer
 62
    1
370
   -1
100
AcDbLine
 10
478
 20
-80.825
 11
478.525
 21
-80.825
  0
LINE
  5
143
100
AcDbEntity
  8
1
  6
ByLayer
 62
    1
370
   -1
100
AcDbLine
 10
466.175
 20
-80.825
 11
466.175
 21
-91
  0
ARC
  5
144
100
AcDbEntity
  8
1
  6
ByLayer
 62
    1
370
   -1
100
AcDbCircle
 10
466
 20
-91
 40
0.175
100
AcDbArc
 50
-90
 51
0
  0
LINE
  5
145
100
AcDbEntity
  8
1
  6
ByLayer
 62
    1
370
   -1
100
AcDbLine
 10
466
 20
-91.175
 11
461.175
 21
-91.175
  0
LINE
  5
146
100
AcDbEntity
  8
1
  6
ByLayer
 62
    1
370
   -1
100
AcDbLine
 10
461.175
 20
-91.175
 11
461.175
 21
-100.825
  0
LINE
  5
147
100
AcDbEntity
  8
1
  6
ByLayer
 62
    1
370
   -1
100
AcDbLine
 10
461.175
 20
-100.825
 11
466
 21
-100.825
  0
ARC
  5
148
100
AcDbEntity
  8
1
  6
ByLayer
 62
    1
370
   -1
100
AcDbCircle
 10
466
 20
-101
 40
0.175
100
AcDbArc
 50
0
 51
90
  0
LINE
  5
149
100
AcDbEntity
  8
1
  6
ByLayer
 62
    1
370
   -1
100
AcDbLine
 10
466.175
 20
-101
 11
466.175
 21
-110.825
  0
LINE
  5
14A
100
AcDbEntity
  8
1
  6
ByLayer
 62
    1
370
   -1
100
AcDbLine
 10
466.175
 20
-110.825
 11
476
 21
-110.825
  0
ARC
  5
14B
100
AcDbEntity
  8
1
  6
ByLayer
 62
    1
370
   -1
100
AcDbCircle
 10
476
 20
-111
 40
0.175
100
AcDbArc
 50
0
 51
90
  0
LINE
  5
14C
100
AcDbEntity
  8
1
  6
ByLayer
 62
    1
370
   -1
100
AcDbLine
 10
476.175
 20
-111
 11
476.175
 21
-115.825
  0
LINE
  5
14D
100
AcDbEntity
  8
1
  6
ByLayer
 62
    1
370
   -1
100
AcDbLine
 10
476.175
 20
-115.825
 11
485.825
 21
-115.825
  0
LINE
  5
14E
100
AcDbEntity
  8
1
  6
ByLayer
 62
    1
370
   -1
100
AcDbLine
 10
485.825
 20
-115.825
 11
485.825
 21
-111
  0
ARC
  5
14F
100
AcDbEntity
  8
1
  6
ByLayer
 62
    1
370
   -1
100
AcDbCircle
 10
486
 20
-111
 40
0.175
100
AcDbArc
 50
90
 51
180
  0
LINE
  5
150
100
AcDbEntity
  8
1
  6
ByLayer
 62
    1
370
   -1
100
AcDbLine
 10
486
 20
-110.825
 11
496
 21
-110.825
  0
ARC
  5
151
100
AcDbEntity
  8
1
  6
ByLayer
 62
    1
370
   -1
100
AcDbCircle
 10
496
 20
-111
 40
0.175
100
AcDbArc
 50
0
 51
90
  0
LINE
  5
152
100
AcDbEntity
  8
1
  6
ByLayer
 62
    1
370
   -1
100
AcDbLine
 10
496.175
 20
-111
 11
496.175
 21
-115.825
  0
LINE
  5
153
100
AcDbEntity
  8
1
  6
ByLayer
 62
    1
370
   -1
100
AcDbLine
 10
496.175
 20
-115.825
 11
525.825
 21
-115.825
  0
LINE
  5
154
100
AcDbEntity
  8
1
  6
ByLayer
 62
    1
370
   -1
100
AcDbLine
 10
525.825
 20
-115.825
 11
525.825
 21
-111
  0
ARC
  5
155
100
AcDbEntity
  8
1
  6
ByLayer
 62
    1
370
   -1
100
AcDbCircle
 10
526
 20
-111
 40
0.175
100
AcDbArc
 50
90
 51
180
  0
LINE
  5
156
100
AcDbEntity
  8
1
  6
ByLayer
 62
    1
370
   -1
100
AcDbLine
 10
526
 20
-110.825
 11
536
 21
-110.825
  0
ARC
  5
157
100
AcDbEntity
  8
1
  6
ByLayer
 62
    1
370
   -1
100
AcDbCircle
 10
536
 20
-111
 40
0.175
100
AcDbArc
 50
0
 51
90
  0
LINE
  5
158
100
AcDbEntity
  8
1
  6
ByLayer
 62
    1
370
   -1
100
AcDbLine
 10
536.175
 20
-111
 11
536.175
 21
-115.825
  0
LINE
  5
159
100
AcDbEntity
  8
1
  6
ByLayer
 62
    1
370
   -1
100
AcDbLine
 10
536.175
 20
-115.825
 11
545.825
 21
-115.825
  0
LINE
  5
15A
100
AcDbEntity
  8
1
  6
ByLayer
 62
    1
370
   -1
100
AcDbLine
 10
545.825
 20
-115.825
 11
545.825
 21
-111
  0
ARC
  5
15B
100
AcDbEntity
  8
1
  6
ByLayer
 62
    1
370
   -1
100
AcDbCircle
 10
546
 20
-111
 40
0.175
100
AcDbArc
 50
90
 51
180
  0
LINE
  5
15C
100
AcDbEntity
  8
1
  6
ByLayer
 62
    1
370
   -1
100
AcDbLine
 10
546
 20
-110.825
 11
556
 21
-110.825
  0
ARC
  5
15D
100
AcDbEntity
  8
1
  6
ByLayer
 62
    1
370
   -1
100
AcDbCircle
 10
556
 20
-111
 40
0.175
100
AcDbArc
 50
0
 51
90
  0
LINE
  5
15E
100
AcDbEntity
  8
1
  6
ByLayer
 62
    1
370
   -1
100
AcDbLine
 10
556.175
 20
-111
 11
556.175
 21
-115.825
  0
LINE
  5
15F
100
AcDbEntity
  8
1
  6
ByLayer
 62
    1
370
   -1
100
AcDbLine
 10
556.175
 20
-115.825
 11
585.825
 21
-115.825
  0
LINE
  5
160
100
AcDbEntity
  8
1
  6
ByLayer
 62
    1
370
   -1
100
AcDbLine
 10
585.825
 20
-115.825
 11
585.825
 21
-111
  0
ARC
  5
161
100
AcDbEntity
  8
1
  6
ByLayer
 62
    1
370
   -1
100
AcDbCircle
 10
586
 20
-111
 40
0.175
100
AcDbArc
 50
90
 51
180
  0
LINE
  5
162
100
AcDbEntity
  8
1
  6
ByLayer
 62
    1
370
   -1
100
AcDbLine
 10
586
 20
-110.825
 11
596
 21
-110.825
  0
ARC
  5
163
100
AcDbEntity
  8
1
  6
ByLayer
 62
    1
370
   -1
100
AcDbCircle
 10
596
 20
-111
 40
0.175
100
AcDbArc
 50
0
 51
90
  0
LINE
  5
164
100
AcDbEntity
  8
1
  6
ByLayer
 62
    1
370
   -1
100
AcDbLine
 10
596.175
 20
-111
 11
596.175
 21
-115.825
  0
LINE
  5
165
100
AcDbEntity
  8
1
  6
ByLayer
 62
    1
370
   -1
100
AcDbLine
 10
596.175
 20
-115.825
 11
605.825
 21
-115.825
  0
LINE
  5
166
100
AcDbEntity
  8
1
  6
ByLayer
 62
    1
370
   -1
100
AcDbLine
 10
605.825
 20
-115.825
 11
605.825
 21
-111
  0
ARC
  5
167
100
AcDbEntity
  8
1
  6
ByLayer
 62
    1
370
   -1
100
AcDbCircle
 10
606
 20
-111
 40
0.175
100
AcDbArc
 50
90
 51
180
  0
LINE
  5
168
100
AcDbEntity
  8
1
  6
ByLayer
 62
    1
370
   -1
100
AcDbLine
 10
606
 20
-110.825
 11
615.825
 21
-110.825
  0
LINE
  5
169
100
AcDbEntity
  8
1
  6
ByLayer
 62
    1
370
   -1
100
AcDbLine
 10
615.825
 20
-110.825
 11
615.825
 21
-101
  0
ARC
  5
16A
100
AcDbEntity
  8
1
  6
ByLayer
 62
    1
370
   -1
100
AcDbCircle
 10
616
 20
-101
 40
0.175
100
AcDbArc
 50
90
 51
180
  0
LINE
  5
16B
100
AcDbEntity
  8
1
  6
ByLayer
 62
    1
370
   -1
100
AcDbLine
 10
616
 20
-100.825
 11
620.825
 21
-100.825
  0
LINE
  5
16C
100
AcDbEntity
  8
1
  6
ByLayer
 62
    1
370
   -1
100
AcDbLine
 10
620.825
 20
-100.825
 11
620.825
 21
-91.175
  0
LINE
  5
16D
100
AcDbEntity
  8
1
  6
ByLayer
 62
    1
370
   -1
100
AcDbLine
 10
620.825
 20
-91.175
 11
616
 21
-91.175
  0
ARC
  5
16E
100
AcDbEntity
  8
1
  6
ByLayer
 62
    1
370
   -1
100
AcDbCircle
 10
616
 20
-91
 40
0.175
100
AcDbArc
 50
180
 51
-90
  0
LINE
  5
16F
100
AcDbEntity
  8
1
  6
ByLayer
 62
    1
370
   -1
100
AcDbLine
 10
615.825
 20
-91
 11
615.825
 21
-71
  0
ARC
  5
170
100
AcDbEntity
  8
1
  6
ByLayer
 62
    1
370
   -1
100
AcDbCircle
 10
616
 20
-71
 40
0.175
100
AcDbArc
 50
90
 51
180
  0
LINE
  5
171
100
AcDbEntity
  8
1
  6
ByLayer
 62
    1
370
   -1
100
AcDbLine
 10
616
 20
-70.825
 11
620.825
 21
-70.825
  0
LINE
  5
172
100
AcDbEntity
  8
1
  6
ByLayer
 62
    1
370
   -1
100
AcDbLine
 10
620.825
 20
-70.825
 11
620.825
 21
-51.175
  0
LINE
  5
173
100
AcDbEntity
  8
1
  6
ByLayer
 62
    1
370
   -1
100
AcDbLine
 10
620.825
 20
-51.175
 11
616
 21
-51.175
  0
ARC
  5
174
100
AcDbEntity
  8
1
  6
ByLayer
 62
    1
370
   -1
100
AcDbCircle
 10
616
 20
-51
 40
0.175
100
AcDbArc
 50
180
 51
-90
  0
LINE
  5
175
100
AcDbEntity
  8
1
  6
ByLayer
 62
    1
370
   -1
100
AcDbLine
 10
615.825
 20
-51
 11
615.825
 21
-31
  0
ARC
  5
176
100
AcDbEntity
  8
1
  6
ByLayer
 62
    1
370
   -1
100
AcDbCircle
 10
616
 20
-31
 40
0.175
100
AcDbArc
 50
90
 51
180
  0
LINE
  5
177
100
AcDbEntity
  8
1
  6
ByLayer
 62
    1
370
   -1
100
AcDbLine
 10
616
 20
-30.825
 11
620.825
 21
-30.825
  0
LINE
  5
178
100
AcDbEntity
  8
1
  6
ByLayer
 62
    1
370
   -1
100
AcDbLine
 10
620.825
 20
-30.825
 11
620.825
 21
-21.175
  0
LINE
  5
179
100
AcDbEntity
  8
1
  6
ByLayer
 62
    1
370
   -1
100
AcDbLine
 10
620.825
 20
-21.175
 11
616
 21
-21.175
  0
ARC
  5
17A
100
AcDbEntity
  8
1
  6
ByLayer
 62
    1
370
   -1
100
AcDbCircle
 10
616
 20
-21
 40
0.175
100
AcDbArc
 50
180
 51
-90
  0
LINE
  5
17B
100
AcDbEntity
  8
1
  6
ByLayer
 62
    1
370
   -1
100
AcDbLine
 10
615.825
 20
-21
 11
615.825
 21
-11.175
  0
LINE
  5
17C
100
AcDbEntity
  8
1
  6
ByLayer
 62
    1
370
   -1
100
AcDbLine
 10
615.825
 20
-11.175
 11
606
 21
-11.175
  0
ARC
  5
17D
100
AcDbEntity
  8
1
  6
ByLayer
 62
    1
370
   -1
100
AcDbCircle
 10
606
 20
-11
 40
0.175
100
AcDbArc
 50
180
 51
-90
  0
LINE
  5
17E
100
AcDbEntity
  8
1
  6
ByLayer
 62
    1
370
   -1
100
AcDbLine
 10
605.825
 20
-11
 11
605.825
 21
-6.175
  0
LINE
  5
17F
100
AcDbEntity
  8
1
  6
ByLayer
 62
    1
370
   -1
100
AcDbLine
 10
605.825
 20
-6.175
 11
596.175
 21
-6.175
  0
LINE
  5
180
100
AcDbEntity
  8
1
  6
ByLayer
 62
    1
370
   -1
100
AcDbLine
 10
596.175
 20
-6.175
 11
596.175
 21
-11
  0
ARC
  5
181
100
AcDbEntity
  8
1
  6
ByLayer
 62
    1
370
   -1
100
AcDbCircle
 10
596
 20
-11
 40
0.175
100
AcDbArc
 50
-90
 51
0
  0
LINE
  5
182
100
AcDbEntity
  8
1
  6
ByLayer
 62
    1
370
   -1
100
AcDbLine
 10
596
 20
-11.175
 11
586
 21
-11.175
  0
ARC
  5
183
100
AcDbEntity
  8
1
  6
ByLayer
 62
    1
370
   -1
100
AcDbCircle
 10
586
 20
-11
 40
0.175
100
AcDbArc
 50
180
 51
-90
  0
LINE
  5
184
100
AcDbEntity
  8
1
  6
ByLayer
 62
    1
370
   -1
100
AcDbLine
 10
585.825
 20
-11
 11
585.825
 21
-6.175
  0
LINE
  5
185
100
AcDbEntity
  8
1
  6
ByLayer
 62
    1
370
   -1
100
AcDbLine
 10
585.825
 20
-6.175
 11
556.175
 21
-6.175
  0
LINE
  5
186
100
AcDbEntity
  8
1
  6
ByLayer
 62
    1
370
   -1
100
AcDbLine
 10
556.175
 20
-6.175
 11
556.175
 21
-11
  0
ARC
  5
187
100
AcDbEntity
  8
1
  6
ByLayer
 62
    1
370
   -1
100
AcDbCircle
 10
556
 20
-11
 40
0.175
100
AcDbArc
 50
-90
 51
0
  0
LINE
  5
188
100
AcDbEntity
  8
1
  6
ByLayer
 62
    1
370
   -1
100
AcDbLine
 10
556
 20
-11.175
 11
546
 21
-11.175
  0
ARC
  5
189
100
AcDbEntity
  8
1
  6
ByLayer
 62
    1
370
   -1
100
AcDbCircle
 10
546
 20
-11
 40
0.175
100
AcDbArc
 50
180
 51
-90
  0
LINE
  5
18A
100
AcDbEntity
  8
1
  6
ByLayer
 62
    1
370
   -1
100
AcDbLine
 10
545.825
 20
-11
 11
545.825
 21
-6.175
  0
LINE
  5
18B
100
AcDbEntity
  8
1
  6
ByLayer
 62
    1
370
   -1
100
AcDbLine
 10
545.825
 20
-6.175
 11
536.175
 21
-6.175
  0
LINE
  5
18C
100
AcDbEntity
  8
1
  6
ByLayer
 62
    1
370
   -1
100
AcDbLine
 10
536.175
 20
-6.175
 11
536.175
 21
-11
  0
ARC
  5
18D
100
AcDbEntity
  8
1
  6
ByLayer
 62
    1
370
   -1
100
AcDbCircle
 10
536
 20
-11
 40
0.175
100
AcDbArc
 50
-90
 51
0
  0
LINE
  5
18E
100
AcDbEntity
  8
1
  6
ByLayer
 62
    1
370
   -1
100
AcDbLine
 10
536
 20
-11.175
 11
526
 21
-11.175
  0
ARC
  5
18F
100
AcDbEntity
  8
1
  6
ByLayer
 62
    1
370
   -1
100
AcDbCircle
 10
526
 20
-11
 40
0.175
100
AcDbArc
 50
180
 51
-90
  0
LINE
  5
190
100
AcDbEntity
  8
1
  6
ByLayer
 62
    1
370
   -1
100
AcDbLine
 10
525.825
 20
-11
 11
525.825
 21
-6.175
  0
LINE
  5
191
100
AcDbEntity
  8
1
  6
ByLayer
 62
    1
370
   -1
100
AcDbLine
 10
525.825
 20
-6.175
 11
496.175
 21
-6.175
  0
LINE
  5
192
100
AcDbEntity
  8
1
  6
ByLayer
 62
    1
370
   -1
100
AcDbLine
 10
496.175
 20
-6.175
 11
496.175
 21
-11
  0
ARC
  5
193
100
AcDbEntity
  8
1
  6
ByLayer
 62
    1
370
   -1
100
AcDbCircle
 10
496
 20
-11
 40
0.175
100
AcDbArc
 50
-90
 51
0
  0
LINE
  5
194
100
AcDbEntity
  8
1
  6
ByLayer
 62
    1
370
   -1
100
AcDbLine
 10
496
 20
-11.175
 11
486
 21
-11.175
  0
ARC
  5
195
100
AcDbEntity
  8
1
  6
ByLayer
 62
    1
370
   -1
100
AcDbCircle
 10
486
 20
-11
 40
0.175
100
AcDbArc
 50
180
 51
-90
  0
LINE
  5
196
100
AcDbEntity
  8
1
  6
ByLayer
 62
    1
370
   -1
100
AcDbLine
 10
485.825
 20
-11
 11
485.825
 21
-6.175
  0
LINE
  5
197
100
AcDbEntity
  8
1
  6
ByLayer
 62
    1
370
   -1
100
AcDbLine
 10
485.825
 20
-6.175
 11
476.175
 21
-6.175
  0
LINE
  5
198
100
AcDbEntity
  8
1
  6
ByLayer
 62
    1
370
   -1
100
AcDbLine
 10
476.175
 20
-6.175
 11
476.175
 21
-11
  0
ARC
  5
199
100
AcDbEntity
  8
1
  6
ByLayer
 62
    1
370
   -1
100
AcDbCircle
 10
476
 20
-11
 40
0.175
100
AcDbArc
 50
-90
 51
0
  0
LINE
  5
19A
100
AcDbEntity
  8
1
  6
ByLayer
 62
    1
370
   -1
100
AcDbLine
 10
476
 20
-11.175
 11
466.175
 21
-11.175
  0
LINE
  5
19B
100
AcDbEntity
  8
1
  6
ByLayer
 62
    1
370
   -1
100
AcDbLine
 10
466.175
 20
-11.175
 11
466.175
 21
-21
  0
ARC
  5
19C
100
AcDbEntity
  8
1
  6
ByLayer
 62
    1
370
   -1
100
AcDbCircle
 10
466
 20
-21
 40
0.175
100
AcDbArc
 50
-90
 51
0
  0
LINE
  5
19D
100
AcDbEntity
  8
1
  6
ByLayer
 62
    1
370
   -1
100
AcDbLine
 10
466
 20
-21.175
 11
461.175
 21
-21.175
  0
LINE
  5
19E
100
AcDbEntity
  8
1
  6
ByLayer
 62
    1
370
   -1
100
AcDbLine
 10
461.175
 20
-21.175
 11
461.175
 21
-30.825
  0
LINE
  5
19F
100
AcDbEntity
  8
1
  6
ByLayer
 62
    1
370
   -1
100
AcDbLine
 10
461.175
 20
-30.825
 11
466
 21
-30.825
  0
ARC
  5
1A0
100
AcDbEntity
  8
1
  6
ByLayer
 62
    1
370
   -1
100
AcDbCircle
 10
466
 20
-31
 40
0.175
100
AcDbArc
 50
0
 51
90
  0
LINE
  5
1A1
100
AcDbEntity
  8
1
  6
ByLayer
 62
    1
370
   -1
100
AcDbLine
 10
466.175
 20
-31
 11
466.175
 21
-51
  0
ARC
  5
1A2
100
AcDbEntity
  8
1
  6
ByLayer
 62
    1
370
   -1
100
AcDbCircle
 10
466
 20
-51
 40
0.175
100
AcDbArc
 50
-90
 51
0
  0
LINE
  5
1A3
100
AcDbEntity
  8
1
  6
ByLayer
 62
    1
370
   -1
100
AcDbLine
 10
466
 20
-51.175
 11
461.175
 21
-51.175
  0
LINE
  5
1A4
100
AcDbEntity
  8
1
  6
ByLayer
 62
    1
370
   -1
100
AcDbLine
 10
461.175
 20
-51.175
 11
461.175
 21
-70.825
  0
LINE
  5
1A5
100
AcDbEntity
  8
1
  6
ByLayer
 62
    1
370
   -1
100
AcDbLine
 10
461.175
 20
-70.825
 11
466
 21
-70.825
  0
ARC
  5
1A6
100
AcDbEntity
  8
1
  6
ByLayer
 62
    1
370
   -1
100
AcDbCircle
 10
466
 20
-71
 40
0.175
100
AcDbArc
 50
0
 51
90
  0
LINE
  5
1A7
100
AcDbEntity
  8
1
  6
ByLayer
 62
    1
370
   -1
100
AcDbLine
 10
466.175
 20
-71
 11
466.175
 21
-80.825
  0
ARC
  5
1A8
100
AcDbEntity
  8
1
  6
ByLayer
 62
    1
370
   -1
100
AcDbCircle
 10
-1
 20
-91
 40
0.175
100
AcDbArc
 50
180
 51
270
  0
LINE
  5
1A9
100
AcDbEntity
  8
1
  6
ByLayer
 62
    1
370
   -1
100
AcDbLine
 10
-1.175000000000011
 20
-91
 11
-1.175000000000011
 21
-96
  0
ARC
  5
1AA
100
AcDbEntity
  8
1
  6
ByLayer
 62
    1
370
   -1
100
AcDbCircle
 10
-1
 20
-96
 40
0.175
100
AcDbArc
 50
90
 51
180
  0
LINE
  5
1AB
100
AcDbEntity
  8
1
  6
ByLayer
 62
    1
370
   -1
100
AcDbLine
 10
-1
 20
-96.17500000000001
 11
3.824999999999989
 21
-96.17500000000001
  0
LINE
  5
1AC
100
AcDbEntity
  8
1
  6
ByLayer
 62
    1
370
   -1
100
AcDbLine
 10
3.824999999999989
 20
-96.17500000000001
 11
3.824999999999989
 21
-105.825
  0
LINE
  5
1AD
100
AcDbEntity
  8
1
  6
ByLayer
 62
    1
370
   -1
100
AcDbLine
 10
3.824999999999989
 20
-105.825
 11
-1
 21
-105.825
  0
ARC
  5
1AE
100
AcDbEntity
  8
1
  6
ByLayer
 62
    1
370
   -1
100
AcDbCircle
 10
-1
 20
-106
 40
0.175
100
AcDbArc
 50
180
 51
270
  0
LINE
  5
1AF
100
AcDbEntity
  8
1
  6
ByLayer
 62
    1
370
   -1
100
AcDbLine
 10
-1.175000000000011
 20
-106
 11
-1.175000000000011
 21
-116
  0
ARC
  5
1B0
100
AcDbEntity
  8
1
  6
ByLayer
 62
    1
370
   -1
100
AcDbCircle
 10
-1
 20
-116
 40
0.175
100
AcDbArc
 50
90
 51
180
  0
LINE
  5
1B1
100
AcDbEntity
  8
1
  6
ByLayer
 62
    1
370
   -1
100
AcDbLine
 10
-1
 20
-116.175
 11
3.824999999999989
 21
-116.175
  0
LINE
  5
1B2
100
AcDbEntity
  8
1
  6
ByLayer
 62
    1
370
   -1
100
AcDbLine
 10
3.824999999999989
 20
-116.175
 11
3.824999999999989
 21
-126
  0
ARC
  5
1B3
100
AcDbEntity
  8
1
  6
ByLayer
 62
    1
370
   -1
100
AcDbCircle
 10
4
 20
-126
 40
0.175
100
AcDbArc
 50
90
 51
180
  0
LINE
  5
1B4
100
AcDbEntity
  8
1
  6
ByLayer
 62
    1
370
   -1
100
AcDbLine
 10
4
 20
-126.175
 11
124
 21
-126.175
  0
LINE
  5
1B5
100
AcDbEntity
  8
1
  6
ByLayer
 62
    1
370
   -1
100
AcDbLine
 10
124
 20
-126.175
 11
132
 21
-126.175
  0
ARC
  5
1B6
100
AcDbEntity
  8
1
  6
ByLayer
 62
    1
370
   -1
100
AcDbCircle
 10
132
 20
-126
 40
0.175
100
AcDbArc
 50
0
 51
90
  0
LINE
  5
1B7
100
AcDbEntity
  8
1
  6
ByLayer
 62
    1
370
   -1
100
AcDbLine
 10
132.175
 20
-126
 11
132.175
 21
-116.175
  0
LINE
  5
1B8
100
AcDbEntity
  8
1
  6
ByLayer
 62
    1
370
   -1
100
AcDbLine
 10
132.175
 20
-116.175
 11
137
 21
-116.175
  0
LINE
  5
1B9
100
AcDbEntity
  8
1
  6
ByLayer
 62
    1
370
   -1
100
AcDbLine
 10
137
 20
-116.175
 11
159
 21
-116.175
  0
ARC
  5
1BA
100
AcDbEntity
  8
1
  6
ByLayer
 62
    1
370
   -1
100
AcDbCircle
 10
159
 20
-116
 40
0.175
100
AcDbArc
 50
0
 51
90
  0
LINE
  5
1BB
100
AcDbEntity
  8
1
  6
ByLayer
 62
    1
370
   -1
100
AcDbLine
 10
159.175
 20
-116
 11
159.175
 21
-106
  0
ARC
  5
1BC
100
AcDbEntity
  8
1
  6
ByLayer
 62
    1
370
   -1
100
AcDbCircle
 10
159
 20
-106
 40
0.175
100
AcDbArc
 50
270
 51
0
  0
LINE
  5
1BD
100
AcDbEntity
  8
1
  6
ByLayer
 62
    1
370
   -1
100
AcDbLine
 10
159
 20
-105.825
 11
154.175
 21
-105.825
  0
LINE
  5
1BE
100
AcDbEntity
  8
1
  6
ByLayer
 62
    1
370
   -1
100
AcDbLine
 10
154.175
 20
-105.825
 11
154.175
 21
-96.17500000000001
  0
LINE
  5
1BF
100
AcDbEntity
  8
1
  6
ByLayer
 62
    1
370
   -1
100
AcDbLine
 10
154.175
 20
-96.17500000000001
 11
159
 21
-96.17500000000001
  0
ARC
  5
1C0
100
AcDbEntity
  8
1
  6
ByLayer
 62
    1
370
   -1
100
AcDbCircle
 10
159
 20
-96
 40
0.175
100
AcDbArc
 50
0
 51
90
  0
LINE
  5
1C1
100
AcDbEntity
  8
1
  6
ByLayer
 62
    1
370
   -1
100
AcDbLine
 10
159.175
 20
-96
 11
159.175
 21
-91
  0
ARC
  5
1C2
100
AcDbEntity
  8
1
  6
ByLayer
 62
    1
370
   -1
100
AcDbCircle
 10
159
 20
-91
 40
0.175
100
AcDbArc
 50
270
 51
0
  0
LINE
  5
1C3
100
AcDbEntity
  8
1
  6
ByLayer
 62
    1
370
   -1
100
AcDbLine
 10
159
 20
-90.82499999999999
 11
144
 21
-90.82499999999999
  0
ARC
  5
1C4
100
AcDbEntity
  8
1
  6
ByLayer
 62
    1
370
   -1
100
AcDbCircle
 10
144
 20
-91
 40
0.175
100
AcDbArc
 50
180
 51
270
  0
LINE
  5
1C5
100
AcDbEntity
  8
1
  6
ByLayer
 62
    1
370
   -1
100
AcDbLine
 10
143.825
 20
-91
 11
143.825
 21
-95.82499999999999
  0
LINE
  5
1C6
100
AcDbEntity
  8
1
  6
ByLayer
 62
    1
370
   -1
100
AcDbLine
 10
143.825
 20
-95.82499999999999
 11
134.175
 21
-95.82499999999999
  0
LINE
  5
1C7
100
AcDbEntity
  8
1
  6
ByLayer
 62
    1
370
   -1
100
AcDbLine
 10
134.175
 20
-95.82499999999999
 11
134.175
 21
-91
  0
ARC
  5
1C8
100
AcDbEntity
  8
1
  6
ByLayer
 62
    1
370
   -1
100
AcDbCircle
 10
134
 20
-91
 40
0.175
100
AcDbArc
 50
270
 51
0
  0
LINE
  5
1C9
100
AcDbEntity
  8
1
  6
ByLayer
 62
    1
370
   -1
100
AcDbLine
 10
134
 20
-90.82499999999999
 11
124
 21
-90.82499999999999
  0
ARC
  5
1CA
100
AcDbEntity
  8
1
  6
ByLayer
 62
    1
370
   -1
100
AcDbCircle
 10
124
 20
-91
 40
0.175
100
AcDbArc
 50
180
 51
270
  0
LINE
  5
1CB
100
AcDbEntity
  8
1
  6
ByLayer
 62
    1
370
   -1
100
AcDbLine
 10
123.825
 20
-91
 11
123.825
 21
-95.82499999999999
  0
LINE
  5
1CC
100
AcDbEntity
  8
1
  6
ByLayer
 62
    1
370
   -1
100
AcDbLine
 10
123.825
 20
-95.82499999999999
 11
94.17500000000001
 21
-95.82499999999999
  0
LINE
  5
1CD
100
AcDbEntity
  8
1
  6
ByLayer
 62
    1
370
   -1
100
AcDbLine
 10
94.17500000000001
 20
-95.82499999999999
 11
94.17500000000001
 21
-91
  0
ARC
  5
1CE
100
AcDbEntity
  8
1
  6
ByLayer
 62
    1
370
   -1
100
AcDbCircle
 10
94
 20
-91
 40
0.175
100
AcDbArc
 50
270
 51
0
  0
LINE
  5
1CF
100
AcDbEntity
  8
1
  6
ByLayer
 62
    1
370
   -1
100
AcDbLine
 10
94
 20
-90.82499999999999
 11
84
 21
-90.82499999999999
  0
ARC
  5
1D0
100
AcDbEntity
  8
1
  6
ByLayer
 62
    1
370
   -1
100
AcDbCircle
 10
84
 20
-91
 40
0.175
100
AcDbArc
 50
180
 51
270
  0
LINE
  5
1D1
100
AcDbEntity
  8
1
  6
ByLayer
 62
    1
370
   -1
100
AcDbLine
 10
83.82499999999999
 20
-91
 11
83.82499999999999
 21
-95.82499999999999
  0
LINE
  5
1D2
100
AcDbEntity
  8
1
  6
ByLayer
 62
    1
370
   -1
100
AcDbLine
 10
83.82499999999999
 20
-95.82499999999999
 11
74.175
 21
-95.82499999999999
  0
LINE
  5
1D3
100
AcDbEntity
  8
1
  6
ByLayer
 62
    1
370
   -1
100
AcDbLine
 10
74.175
 20
-95.82499999999999
 11
74.175
 21
-91
  0
ARC
  5
1D4
100
AcDbEntity
  8
1
  6
ByLayer
 62
    1
370
   -1
100
AcDbCircle
 10
74
 20
-91
 40
0.175
100
AcDbArc
 50
270
 51
0
  0
LINE
  5
1D5
100
AcDbEntity
  8
1
  6
ByLayer
 62
    1
370
   -1
100
AcDbLine
 10
74
 20
-90.82499999999999
 11
64
 21
-90.82499999999999
  0
ARC
  5
1D6
100
AcDbEntity
  8
1
  6
ByLayer
 62
    1
370
   -1
100
AcDbCircle
 10
64
 20
-91
 40
0.175
100
AcDbArc
 50
180
 51
270
  0
LINE
  5
1D7
100
AcDbEntity
  8
1
  6
ByLayer
 62
    1
370
   -1
100
AcDbLine
 10
63.825
 20
-91
 11
63.825
 21
-95.82499999999999
  0
LINE
  5
1D8
100
AcDbEntity
  8
1
  6
ByLayer
 62
    1
370
   -1
100
AcDbLine
 10
63.825
 20
-95.82499999999999
 11
34.175
 21
-95.82499999999999
  0
LINE
  5
1D9
100
AcDbEntity
  8
1
  6
ByLayer
 62
    1
370
   -1
100
AcDbLine
 10
34.175
 20
-95.82499999999999
 11
34.175
 21
-91
  0
ARC
  5
1DA
100
AcDbEntity
  8
1
  6
ByLayer
 62
    1
370
   -1
100
AcDbCircle
 10
34
 20
-91
 40
0.175
100
AcDbArc
 50
270
 51
0
  0
LINE
  5
1DB
100
AcDbEntity
  8
1
  6
ByLayer
 62
    1
370
   -1
100
AcDbLine
 10
34
 20
-90.82499999999999
 11
24
 21
-90.82499999999999
  0
ARC
  5
1DC
100
AcDbEntity
  8
1
  6
ByLayer
 62
    1
370
   -1
100
AcDbCircle
 10
24
 20
-91
 40
0.175
100
AcDbArc
 50
180
 51
270
  0
LINE
  5
1DD
100
AcDbEntity
  8
1
  6
ByLayer
 62
    1
370
   -1
100
AcDbLine
 10
23.82499999999999
 20
-91
 11
23.82499999999999
 21
-95.82499999999999
  0
LINE
  5
1DE
100
AcDbEntity
  8
1
  6
ByLayer
 62
    1
370
   -1
100
AcDbLine
 10
23.82499999999999
 20
-95.82499999999999
 11
14.17500000000001
 21
-95.82499999999999
  0
LINE
  5
1DF
100
AcDbEntity
  8
1
  6
ByLayer
 62
    1
370
   -1
100
AcDbLine
 10
14.17500000000001
 20
-95.82499999999999
 11
14.17500000000001
 21
-91
  0
ARC
  5
1E0
100
AcDbEntity
  8
1
  6
ByLayer
 62
    1
370
   -1
100
AcDbCircle
 10
14
 20
-91
 40
0.175
100
AcDbArc
 50
270
 51
0
  0
LINE
  5
1E1
100
AcDbEntity
  8
1
  6
ByLayer
 62
    1
370
   -1
100
AcDbLine
 10
14
 20
-90.82499999999999
 11
-1
 21
-90.82499999999999
  0
MTEXT
  5
1E2
100
AcDbEntity
  8
0
  6
ByLayer
 62
  256
370
   -1
100
AcDbMText
 10
100
 20
-110
 30
0
 40
5
 41
49.16666666666691
 71
    1
 72
    1
  1
Add Text here
  7
standard
210
0
220
0
230
1
 50
180
 73
    2
 44
1
  0
MTEXT
  5
1E3
100
AcDbEntity
  8
0
  6
ByLayer
 62
  256
370
   -1
100
AcDbMText
 10
120
 20
-60
 30
0
 40
5
 41
49.16666666666691
 71
    1
 72
    1
  1
Add Text here
  7
standard
210
0
220
0
230
1
 50
180
 73
    2
 44
1
  0
LINE
  5
1E4
100
AcDbEntity
  8
0
  6
ByLayer
 62
  256
370
   -1
100
AcDbLine
 10
290
 20
-30
 11
290
 21
-100
  0
LINE
  5
1E5
100
AcDbEntity
  8
0
  6
ByLayer
 62
  256
370
   -1
100
AcDbLine
 10
290
 20
-100
 11
190
 21
-100
  0
LINE
  5
1E6
100
AcDbEntity
  8
0
  6
ByLayer
 62
  256
370
   -1
100
AcDbLine
 10
190
 20
-100
 11
190
 21
-20
  0
LINE
  5
1E7
100
AcDbEntity
  8
0
  6
ByLayer
 62
  256
370
   -1
100
AcDbLine
 10
190
 20
-20
 11
290
 21
-20
  0
LINE
  5
1E8
100
AcDbEntity
  8
0
  6
ByLayer
 62
  256
370
   -1
100
AcDbLine
 10
290
 20
-20
 11
290
 21
-30
  0
ENDSEC
  0
SECTION
  2
OBJECTS
  0
DICTIONARY
  5
C
330
0
100
AcDbDictionary
281
    1
  3
ACAD_GROUP
350
D
  0
DICTIONARY
  5
D
330
C
100
AcDbDictionary
281
    1
  0
ENDSEC
  0
EOF
